<?xml version="1.0" encoding="UTF-8"?>
<osm version="0.6" generator="CGImap 0.8.3 (1040459 thorn-01.openstreetmap.org)" copyright="OpenStreetMap and contributors" attribution="http://www.openstreetmap.org/copyright" license="http://opendatacommons.org/licenses/odbl/1-0/">
 <bounds minlat="47.4775000" minlon="19.0559600" maxlat="47.4784100" maxlon="19.0564400"/>
 <node id="50572346" visible="true" version="7" changeset="45698374" timestamp="2017-01-31T21:32:11Z" user="Athoss14" uid="5213878" lat="47.4775577" lon="19.0559399"/>
 <node id="268751709" visible="true" version="7" changeset="45698374" timestamp="2017-01-31T21:32:11Z" user="Athoss14" uid="5213878" lat="47.4776659" lon="19.0568501"/>
 <node id="268751874" visible="true" version="6" changeset="45698374" timestamp="2017-01-31T21:32:12Z" user="Athoss14" uid="5213878" lat="47.4780291" lon="19.0570691"/>
 <node id="268751875" visible="true" version="7" changeset="46324474" timestamp="2017-02-23T02:14:50Z" user="shadowphrogg32642342" uid="1265947" lat="47.4781176" lon="19.0572415"/>
 <node id="268751876" visible="true" version="6" changeset="45698374" timestamp="2017-01-31T21:32:12Z" user="Athoss14" uid="5213878" lat="47.4786161" lon="19.0567350"/>
 <node id="268751877" visible="true" version="6" changeset="46231851" timestamp="2017-02-20T03:28:39Z" user="shadowphrogg32642342" uid="1265947" lat="47.4785214" lon="19.0565415"/>
 <node id="268751879" visible="true" version="5" changeset="45698374" timestamp="2017-01-31T21:32:12Z" user="Athoss14" uid="5213878" lat="47.4784277" lon="19.0561996"/>
 <node id="268751880" visible="true" version="5" changeset="45698374" timestamp="2017-01-31T21:32:12Z" user="Athoss14" uid="5213878" lat="47.4783138" lon="19.0562057"/>
 <node id="268751882" visible="true" version="5" changeset="45698374" timestamp="2017-01-31T21:32:12Z" user="Athoss14" uid="5213878" lat="47.4782815" lon="19.0564543"/>
 <node id="268751883" visible="true" version="7" changeset="46231851" timestamp="2017-02-20T03:28:39Z" user="shadowphrogg32642342" uid="1265947" lat="47.4783919" lon="19.0566803"/>
 <node id="268751967" visible="true" version="5" changeset="65455462" timestamp="2018-12-13T21:32:09Z" user="Tompika" uid="2561972" lat="47.4776648" lon="19.0564573"/>
 <node id="268752215" visible="true" version="8" changeset="84146248" timestamp="2020-04-26T15:08:32Z" user="infeeeee" uid="662512" lat="47.4778082" lon="19.0562254"/>
 <node id="268752216" visible="true" version="8" changeset="84146248" timestamp="2020-04-26T15:08:32Z" user="infeeeee" uid="662512" lat="47.4777240" lon="19.0563143"/>
 <node id="268752217" visible="true" version="8" changeset="84146248" timestamp="2020-04-26T15:08:32Z" user="infeeeee" uid="662512" lat="47.4779907" lon="19.0568677"/>
 <node id="268752218" visible="true" version="8" changeset="84146248" timestamp="2020-04-26T15:08:32Z" user="infeeeee" uid="662512" lat="47.4780758" lon="19.0567779"/>
 <node id="268752222" visible="true" version="7" changeset="45698374" timestamp="2017-01-31T21:32:12Z" user="Athoss14" uid="5213878" lat="47.4781845" lon="19.0565688"/>
 <node id="268752223" visible="true" version="7" changeset="45698374" timestamp="2017-01-31T21:32:12Z" user="Athoss14" uid="5213878" lat="47.4780127" lon="19.0562135"/>
 <node id="268752226" visible="true" version="9" changeset="84146248" timestamp="2020-04-26T15:08:32Z" user="infeeeee" uid="662512" lat="47.4779594" lon="19.0565391"/>
 <node id="369615655" visible="true" version="5" changeset="45698374" timestamp="2017-01-31T21:32:12Z" user="Athoss14" uid="5213878" lat="47.4784740" lon="19.0564502"/>
 <node id="369615669" visible="true" version="4" changeset="48222784" timestamp="2017-04-28T09:51:18Z" user="Athoss15" uid="5284554" lat="47.4776032" lon="19.0562550"/>
 <node id="369615671" visible="true" version="4" changeset="65455462" timestamp="2018-12-13T21:32:09Z" user="Tompika" uid="2561972" lat="47.4778065" lon="19.0561727"/>
 <node id="369615673" visible="true" version="4" changeset="65455462" timestamp="2018-12-13T21:32:09Z" user="Tompika" uid="2561972" lat="47.4779880" lon="19.0561598"/>
 <node id="369615678" visible="true" version="4" changeset="65455462" timestamp="2018-12-13T21:32:09Z" user="Tompika" uid="2561972" lat="47.4780722" lon="19.0561572"/>
 <node id="369615680" visible="true" version="3" changeset="45698374" timestamp="2017-01-31T21:32:12Z" user="Athoss14" uid="5213878" lat="47.4783205" lon="19.0561477"/>
 <node id="369615682" visible="true" version="3" changeset="45698374" timestamp="2017-01-31T21:32:12Z" user="Athoss14" uid="5213878" lat="47.4784069" lon="19.0561193"/>
 <node id="369615684" visible="true" version="3" changeset="45698374" timestamp="2017-01-31T21:32:12Z" user="Athoss14" uid="5213878" lat="47.4784560" lon="19.0561302"/>
 <node id="369615701" visible="true" version="4" changeset="65455462" timestamp="2018-12-13T21:32:09Z" user="Tompika" uid="2561972" lat="47.4782389" lon="19.0565165"/>
 <node id="369615703" visible="true" version="4" changeset="65455462" timestamp="2018-12-13T21:32:09Z" user="Tompika" uid="2561972" lat="47.4782455" lon="19.0565466"/>
 <node id="369615705" visible="true" version="4" changeset="65455462" timestamp="2018-12-13T21:32:09Z" user="Tompika" uid="2561972" lat="47.4782500" lon="19.0565926"/>
 <node id="369615707" visible="true" version="4" changeset="65455462" timestamp="2018-12-13T21:32:09Z" user="Tompika" uid="2561972" lat="47.4782452" lon="19.0566300"/>
 <node id="369615708" visible="true" version="4" changeset="65455462" timestamp="2018-12-13T21:32:09Z" user="Tompika" uid="2561972" lat="47.4782326" lon="19.0566640"/>
 <node id="369615714" visible="true" version="4" changeset="65455462" timestamp="2018-12-13T21:32:09Z" user="Tompika" uid="2561972" lat="47.4781500" lon="19.0567542"/>
 <node id="369615717" visible="true" version="5" changeset="45925718" timestamp="2017-02-08T18:11:17Z" user="Athoss15" uid="5284554" lat="47.4779336" lon="19.0569849"/>
 <node id="369615721" visible="true" version="4" changeset="14419672" timestamp="2012-12-26T23:34:02Z" user="BáthoryPéter" uid="408450" lat="47.4776320" lon="19.0563903"/>
 <node id="1271993534" visible="true" version="5" changeset="61166854" timestamp="2018-07-29T15:10:38Z" user="leveskockaa" uid="2282410" lat="47.4783635" lon="19.0560708">
  <tag k="access" v="permissive"/>
  <tag k="amenity" v="bicycle_parking"/>
  <tag k="capacity" v="10"/>
  <tag k="covered" v="yes"/>
  <tag k="description" v="zárható kerékpár tároló, dolgozók részére"/>
  <tag k="opening_hours" v="24/7"/>
  <tag k="operator" v="BME Kancellária, Üzemeltetési és Karbantartási Igazgatóság"/>
  <tag k="smoothness" v="good"/>
  <tag k="supervised" v="no"/>
  <tag k="surface" v="asphalt"/>
  <tag k="website" v="http://kancellaria.bme.hu/uzemeltetesi_igazgatosag"/>
 </node>
 <node id="2083964071" visible="true" version="2" changeset="45698374" timestamp="2017-01-31T21:32:14Z" user="Athoss14" uid="5213878" lat="47.4778999" lon="19.0563329"/>
 <node id="2083964074" visible="true" version="4" changeset="84146248" timestamp="2020-04-26T15:08:32Z" user="infeeeee" uid="662512" lat="47.4779863" lon="19.0565110"/>
 <node id="2083964076" visible="true" version="3" changeset="84146248" timestamp="2020-04-26T15:08:32Z" user="infeeeee" uid="662512" lat="47.4779997" lon="19.0566199"/>
 <node id="2083964078" visible="true" version="4" changeset="84146248" timestamp="2020-04-26T15:08:32Z" user="infeeeee" uid="662512" lat="47.4780254" lon="19.0565930"/>
 <node id="2083964082" visible="true" version="2" changeset="45698374" timestamp="2017-01-31T21:32:14Z" user="Athoss14" uid="5213878" lat="47.4780717" lon="19.0566883"/>
 <node id="2083964096" visible="true" version="3" changeset="45925718" timestamp="2017-02-08T18:11:17Z" user="Athoss15" uid="5284554" lat="47.4783163" lon="19.0564505"/>
 <node id="2083964099" visible="true" version="2" changeset="44312326" timestamp="2016-12-10T21:39:04Z" user="Athoss06" uid="4950994" lat="47.4783302" lon="19.0562404"/>
 <node id="2083964104" visible="true" version="3" changeset="45925718" timestamp="2017-02-08T18:11:17Z" user="Athoss15" uid="5284554" lat="47.4783636" lon="19.0565334"/>
 <node id="2083964106" visible="true" version="3" changeset="45925718" timestamp="2017-02-08T18:11:17Z" user="Athoss15" uid="5284554" lat="47.4783876" lon="19.0565414"/>
 <node id="2083964109" visible="true" version="2" changeset="44312326" timestamp="2016-12-10T21:39:04Z" user="Athoss06" uid="4950994" lat="47.4784071" lon="19.0565179"/>
 <node id="2083964110" visible="true" version="2" changeset="44312326" timestamp="2016-12-10T21:39:04Z" user="Athoss06" uid="4950994" lat="47.4784218" lon="19.0562331"/>
 <node id="2083964111" visible="true" version="3" changeset="45925718" timestamp="2017-02-08T18:11:17Z" user="Athoss15" uid="5284554" lat="47.4784417" lon="19.0564495"/>
 <node id="2083964113" visible="true" version="3" changeset="45698374" timestamp="2017-01-31T21:32:14Z" user="Athoss14" uid="5213878" lat="47.4784925" lon="19.0568332"/>
 <node id="2083964114" visible="true" version="4" changeset="45698374" timestamp="2017-01-31T21:32:14Z" user="Athoss14" uid="5213878" lat="47.4785034" lon="19.0568557"/>
 <node id="2351646280" visible="true" version="5" changeset="48222784" timestamp="2017-04-28T09:51:18Z" user="Athoss15" uid="5284554" lat="47.4775823" lon="19.0560491">
  <tag k="access" v="private"/>
  <tag k="barrier" v="gate"/>
  <tag k="bicycle" v="yes"/>
  <tag k="foot" v="yes"/>
 </node>
 <node id="3159460882" visible="true" version="4" changeset="45698374" timestamp="2017-01-31T21:32:15Z" user="Athoss14" uid="5213878" lat="47.4781602" lon="19.0574359"/>
 <node id="3810589110" visible="true" version="3" changeset="45925718" timestamp="2017-02-08T18:11:17Z" user="Athoss15" uid="5284554" lat="47.4773551" lon="19.0562648"/>
 <node id="3810589111" visible="true" version="2" changeset="44347435" timestamp="2016-12-12T14:35:29Z" user="Athoss06" uid="4950994" lat="47.4775349" lon="19.0561708"/>
 <node id="3810589113" visible="true" version="2" changeset="44347435" timestamp="2016-12-12T14:35:29Z" user="Athoss06" uid="4950994" lat="47.4775503" lon="19.0561693"/>
 <node id="3810589114" visible="true" version="2" changeset="44347435" timestamp="2016-12-12T14:35:29Z" user="Athoss06" uid="4950994" lat="47.4775325" lon="19.0561175"/>
 <node id="3810589115" visible="true" version="2" changeset="44347435" timestamp="2016-12-12T14:35:29Z" user="Athoss06" uid="4950994" lat="47.4775479" lon="19.0561160"/>
 <node id="3810589118" visible="true" version="2" changeset="45925718" timestamp="2017-02-08T18:11:17Z" user="Athoss15" uid="5284554" lat="47.4776400" lon="19.0560689"/>
 <node id="3810589121" visible="true" version="4" changeset="46446529" timestamp="2017-02-27T16:52:20Z" user="Athoss15" uid="5284554" lat="47.4776891" lon="19.0568976"/>
 <node id="3810589126" visible="true" version="4" changeset="45925718" timestamp="2017-02-08T18:11:17Z" user="Athoss15" uid="5284554" lat="47.4778142" lon="19.0565452"/>
 <node id="3810589138" visible="true" version="4" changeset="45925718" timestamp="2017-02-08T18:11:17Z" user="Athoss15" uid="5284554" lat="47.4782533" lon="19.0560302"/>
 <node id="3820916225" visible="true" version="4" changeset="84146248" timestamp="2020-04-26T15:08:32Z" user="infeeeee" uid="662512" lat="47.4779186" lon="19.0567181">
  <tag k="entrance" v="yes"/>
 </node>
 <node id="3820916226" visible="true" version="3" changeset="65455462" timestamp="2018-12-13T21:32:09Z" user="Tompika" uid="2561972" lat="47.4778386" lon="19.0568061"/>
 <node id="3830987321" visible="true" version="2" changeset="42095635" timestamp="2016-09-12T09:31:44Z" user="MarsupilamiEater" uid="871272" lat="47.4777578" lon="19.0564353">
  <tag k="information" v="map"/>
  <tag k="tourism" v="information"/>
 </node>
 <node id="3830987346" visible="true" version="3" changeset="42096060" timestamp="2016-09-12T09:54:02Z" user="MarsupilamiEater" uid="871272" lat="47.4777182" lon="19.0563661">
  <tag k="emergency" v="fire_hydrant"/>
  <tag k="fire_hydrant:type" v="pillar"/>
 </node>
 <node id="3830987347" visible="true" version="2" changeset="57634642" timestamp="2018-03-29T13:50:05Z" user="leveskockaa" uid="2282410" lat="47.4782296" lon="19.0560521">
  <tag k="colour" v="red"/>
  <tag k="emergency" v="fire_hydrant"/>
  <tag k="fire_hydrant:type" v="pillar"/>
 </node>
 <node id="4397167956" visible="true" version="3" changeset="45698374" timestamp="2017-01-31T21:32:16Z" user="Athoss14" uid="5213878" lat="47.4784802" lon="19.0568463">
  <tag k="entrance" v="yes"/>
 </node>
 <node id="4397167965" visible="true" version="4" changeset="46324474" timestamp="2017-02-23T02:14:59Z" user="shadowphrogg32642342" uid="1265947" lat="47.4784491" lon="19.0568729"/>
 <node id="4397208030" visible="true" version="3" changeset="46446529" timestamp="2017-02-27T16:52:20Z" user="Athoss15" uid="5284554" lat="47.4777348" lon="19.0568618"/>
 <node id="4397208034" visible="true" version="3" changeset="65455462" timestamp="2018-12-13T21:32:09Z" user="Tompika" uid="2561972" lat="47.4779019" lon="19.0569292"/>
 <node id="4397208035" visible="true" version="2" changeset="45698374" timestamp="2017-01-31T21:32:16Z" user="Athoss14" uid="5213878" lat="47.4781430" lon="19.0573996"/>
 <node id="4397208036" visible="true" version="3" changeset="45698374" timestamp="2017-01-31T21:32:16Z" user="Athoss14" uid="5213878" lat="47.4780695" lon="19.0571517">
  <tag k="entrance" v="yes"/>
 </node>
 <node id="4397208037" visible="true" version="3" changeset="65455462" timestamp="2018-12-13T21:32:09Z" user="Tompika" uid="2561972" lat="47.4780371" lon="19.0571882"/>
 <node id="4397208038" visible="true" version="4" changeset="84146248" timestamp="2020-04-26T15:08:32Z" user="infeeeee" uid="662512" lat="47.4779341" lon="19.0567504"/>
 <node id="4397208039" visible="true" version="3" changeset="84146248" timestamp="2020-04-26T15:08:32Z" user="infeeeee" uid="662512" lat="47.4779793" lon="19.0568440"/>
 <node id="4397208047" visible="true" version="4" changeset="84146248" timestamp="2020-04-26T15:08:32Z" user="infeeeee" uid="662512" lat="47.4778531" lon="19.0565821"/>
 <node id="4397231824" visible="true" version="2" changeset="45698374" timestamp="2017-01-31T21:32:16Z" user="Athoss14" uid="5213878" lat="47.4780593" lon="19.0571309"/>
 <node id="4397231830" visible="true" version="3" changeset="46324474" timestamp="2017-02-23T02:15:00Z" user="shadowphrogg32642342" uid="1265947" lat="47.4781656" lon="19.0569212"/>
 <node id="4397231832" visible="true" version="3" changeset="46324474" timestamp="2017-02-23T02:15:00Z" user="shadowphrogg32642342" uid="1265947" lat="47.4781917" lon="19.0568964"/>
 <node id="4397231837" visible="true" version="2" changeset="65455462" timestamp="2018-12-13T21:32:09Z" user="Tompika" uid="2561972" lat="47.4777032" lon="19.0565334"/>
 <node id="4397231840" visible="true" version="2" changeset="65455462" timestamp="2018-12-13T21:32:09Z" user="Tompika" uid="2561972" lat="47.4778187" lon="19.0567673"/>
 <node id="4397231842" visible="true" version="1" changeset="42096060" timestamp="2016-09-12T09:54:01Z" user="MarsupilamiEater" uid="871272" lat="47.4774810" lon="19.0563409"/>
 <node id="4397231844" visible="true" version="3" changeset="46475417" timestamp="2017-02-28T18:56:08Z" user="Athoss15" uid="5284554" lat="47.4768547" lon="19.0560825"/>
 <node id="4523507754" visible="true" version="3" changeset="54373842" timestamp="2017-12-05T19:20:12Z" user="zsolt d" uid="2077889" lat="47.4784933" lon="19.0564926">
  <tag k="entrance" v="main"/>
 </node>
 <node id="4530402774" visible="true" version="2" changeset="51512922" timestamp="2017-08-28T15:10:06Z" user="leveskockaa" uid="2282410" lat="47.4783973" lon="19.0560852">
  <tag k="amenity" v="waste_basket"/>
 </node>
 <node id="4551165273" visible="true" version="3" changeset="46446544" timestamp="2017-02-27T16:52:46Z" user="Athoss15" uid="5284554" lat="47.4781239" lon="19.0573574">
  <tag k="barrier" v="chain"/>
 </node>
 <node id="4649892715" visible="true" version="1" changeset="45698374" timestamp="2017-01-31T21:32:07Z" user="Athoss14" uid="5213878" lat="47.4782884" lon="19.0561510"/>
 <node id="4649892740" visible="true" version="2" changeset="65455462" timestamp="2018-12-13T21:32:09Z" user="Tompika" uid="2561972" lat="47.4776520" lon="19.0562197"/>
 <node id="4675215877" visible="true" version="1" changeset="45925718" timestamp="2017-02-08T18:11:16Z" user="Athoss15" uid="5284554" lat="47.4783160" lon="19.0561884"/>
 <node id="4675216389" visible="true" version="2" changeset="65455462" timestamp="2018-12-13T21:32:09Z" user="Tompika" uid="2561972" lat="47.4781167" lon="19.0567882"/>
 <node id="4675216390" visible="true" version="1" changeset="45925718" timestamp="2017-02-08T18:11:16Z" user="Athoss15" uid="5284554" lat="47.4780314" lon="19.0562522"/>
 <node id="4675216391" visible="true" version="2" changeset="65455462" timestamp="2018-12-13T21:32:09Z" user="Tompika" uid="2561972" lat="47.4780921" lon="19.0561949"/>
 <node id="4675216392" visible="true" version="2" changeset="65455462" timestamp="2018-12-13T21:32:09Z" user="Tompika" uid="2561972" lat="47.4778814" lon="19.0561665"/>
 <node id="4675216393" visible="true" version="2" changeset="65455462" timestamp="2018-12-13T21:32:09Z" user="Tompika" uid="2561972" lat="47.4778833" lon="19.0562337"/>
 <node id="4675216394" visible="true" version="2" changeset="65455462" timestamp="2018-12-13T21:32:09Z" user="Tompika" uid="2561972" lat="47.4779900" lon="19.0562270"/>
 <node id="4675216396" visible="true" version="1" changeset="45925718" timestamp="2017-02-08T18:11:16Z" user="Athoss15" uid="5284554" lat="47.4782675" lon="19.0564971"/>
 <node id="4675216398" visible="true" version="2" changeset="65455462" timestamp="2018-12-13T21:32:09Z" user="Tompika" uid="2561972" lat="47.4781503" lon="19.0563224"/>
 <node id="4675216399" visible="true" version="1" changeset="45925718" timestamp="2017-02-08T18:11:16Z" user="Athoss15" uid="5284554" lat="47.4781828" lon="19.0561867"/>
 <node id="4675216400" visible="true" version="2" changeset="65455462" timestamp="2018-12-13T21:32:09Z" user="Tompika" uid="2561972" lat="47.4782589" lon="19.0561518"/>
 <node id="4675216401" visible="true" version="1" changeset="45925718" timestamp="2017-02-08T18:11:16Z" user="Athoss15" uid="5284554" lat="47.4775587" lon="19.0563228"/>
 <node id="4675216402" visible="true" version="1" changeset="45925718" timestamp="2017-02-08T18:11:16Z" user="Athoss15" uid="5284554" lat="47.4775782" lon="19.0563014"/>
 <node id="4675216403" visible="true" version="1" changeset="45925718" timestamp="2017-02-08T18:11:16Z" user="Athoss15" uid="5284554" lat="47.4776271" lon="19.0564053"/>
 <node id="4675216405" visible="true" version="1" changeset="45925718" timestamp="2017-02-08T18:11:16Z" user="Athoss15" uid="5284554" lat="47.4774760" lon="19.0561538"/>
 <node id="4675216406" visible="true" version="1" changeset="45925718" timestamp="2017-02-08T18:11:16Z" user="Athoss15" uid="5284554" lat="47.4774638" lon="19.0561371"/>
 <node id="4675216407" visible="true" version="1" changeset="45925718" timestamp="2017-02-08T18:11:16Z" user="Athoss15" uid="5284554" lat="47.4774484" lon="19.0561250"/>
 <node id="4675216408" visible="true" version="1" changeset="45925718" timestamp="2017-02-08T18:11:16Z" user="Athoss15" uid="5284554" lat="47.4775313" lon="19.0562665"/>
 <node id="4675216409" visible="true" version="1" changeset="45925718" timestamp="2017-02-08T18:11:16Z" user="Athoss15" uid="5284554" lat="47.4774159" lon="19.0561568"/>
 <node id="4675216410" visible="true" version="1" changeset="45925718" timestamp="2017-02-08T18:11:16Z" user="Athoss15" uid="5284554" lat="47.4774293" lon="19.0561807"/>
 <node id="4675216411" visible="true" version="2" changeset="65455462" timestamp="2018-12-13T21:32:09Z" user="Tompika" uid="2561972" lat="47.4778114" lon="19.0567649"/>
 <node id="4675216412" visible="true" version="1" changeset="45925718" timestamp="2017-02-08T18:11:16Z" user="Athoss15" uid="5284554" lat="47.4777436" lon="19.0566225"/>
 <node id="4675216413" visible="true" version="1" changeset="45925718" timestamp="2017-02-08T18:11:16Z" user="Athoss15" uid="5284554" lat="47.4777776" lon="19.0565823"/>
 <node id="4675216414" visible="true" version="1" changeset="45925718" timestamp="2017-02-08T18:11:16Z" user="Athoss15" uid="5284554" lat="47.4777037" lon="19.0563201"/>
 <node id="4675216415" visible="true" version="1" changeset="45925718" timestamp="2017-02-08T18:11:16Z" user="Athoss15" uid="5284554" lat="47.4784000" lon="19.0565290"/>
 <node id="4675216416" visible="true" version="1" changeset="45925718" timestamp="2017-02-08T18:11:16Z" user="Athoss15" uid="5284554" lat="47.4783941" lon="19.0565363"/>
 <node id="4675216417" visible="true" version="1" changeset="45925718" timestamp="2017-02-08T18:11:16Z" user="Athoss15" uid="5284554" lat="47.4783796" lon="19.0565414"/>
 <node id="4675216418" visible="true" version="1" changeset="45925718" timestamp="2017-02-08T18:11:16Z" user="Athoss15" uid="5284554" lat="47.4783710" lon="19.0565387"/>
 <node id="4675216419" visible="true" version="1" changeset="45925718" timestamp="2017-02-08T18:11:16Z" user="Athoss15" uid="5284554" lat="47.4782746" lon="19.0564408"/>
 <node id="4704008259" visible="true" version="1" changeset="46374843" timestamp="2017-02-24T18:22:19Z" user="Athoss15" uid="5284554" lat="47.4773209" lon="19.0560612"/>
 <node id="4708577501" visible="true" version="1" changeset="46446529" timestamp="2017-02-27T16:52:19Z" user="Athoss15" uid="5284554" lat="47.4777067" lon="19.0568789"/>
 <node id="4708577502" visible="true" version="1" changeset="46446529" timestamp="2017-02-27T16:52:19Z" user="Athoss15" uid="5284554" lat="47.4777627" lon="19.0568262"/>
 <node id="4822585837" visible="true" version="1" changeset="48222784" timestamp="2017-04-28T09:51:18Z" user="Athoss15" uid="5284554" lat="47.4775960" lon="19.0561838">
  <tag k="barrier" v="lift_gate"/>
 </node>
 <node id="5042460552" visible="true" version="1" changeset="51225154" timestamp="2017-08-18T08:19:58Z" user="Athoss15" uid="5284554" lat="47.4781128" lon="19.0573351"/>
 <node id="5106116052" visible="true" version="3" changeset="60173744" timestamp="2018-06-26T08:42:21Z" user="leveskockaa" uid="2282410" lat="47.4778849" lon="19.0562702">
  <tag k="historic" v="locomotive"/>
  <tag k="note" v="kerék/wheel"/>
 </node>
 <node id="5106116058" visible="true" version="3" changeset="84146248" timestamp="2020-04-26T15:08:32Z" user="infeeeee" uid="662512" lat="47.4780068" lon="19.0565539">
  <tag k="level" v="6"/>
  <tag k="location" v="wall"/>
  <tag k="tourism" v="artwork"/>
 </node>
 <node id="5254908146" visible="true" version="2" changeset="54373842" timestamp="2017-12-05T18:46:15Z" user="zsolt d" uid="2077889" lat="47.4783390" lon="19.0560538"/>
 <node id="5254908147" visible="true" version="2" changeset="54373842" timestamp="2017-12-05T18:46:15Z" user="zsolt d" uid="2077889" lat="47.4783401" lon="19.0560882"/>
 <node id="5254908148" visible="true" version="2" changeset="54373842" timestamp="2017-12-05T18:46:15Z" user="zsolt d" uid="2077889" lat="47.4783787" lon="19.0560852"/>
 <node id="5254908149" visible="true" version="2" changeset="54373842" timestamp="2017-12-05T18:46:15Z" user="zsolt d" uid="2077889" lat="47.4783774" lon="19.0560509"/>
 <node id="5514257954" visible="true" version="1" changeset="57634642" timestamp="2018-03-29T13:50:05Z" user="leveskockaa" uid="2282410" lat="47.4775890" lon="19.0561147">
  <tag k="traffic_calming" v="bump"/>
 </node>
 <node id="6135853025" visible="true" version="1" changeset="65455462" timestamp="2018-12-13T21:32:08Z" user="Tompika" uid="2561972" lat="47.4781359" lon="19.0567686"/>
 <node id="6135853026" visible="true" version="1" changeset="65455462" timestamp="2018-12-13T21:32:08Z" user="Tompika" uid="2561972" lat="47.4778536" lon="19.0568353"/>
 <node id="6578041236" visible="true" version="1" changeset="71729044" timestamp="2019-06-29T06:23:30Z" user="Bratkó József" uid="419389" lat="47.4791360" lon="19.0559600"/>
 <node id="6578041237" visible="true" version="1" changeset="71729044" timestamp="2019-06-29T06:23:30Z" user="Bratkó József" uid="419389" lat="47.4784597" lon="19.0559943">
  <tag k="access" v="customers"/>
  <tag k="barrier" v="gate"/>
  <tag k="bicycle" v="yes"/>
  <tag k="foot" v="yes"/>
 </node>
 <node id="6578041253" visible="true" version="1" changeset="71729044" timestamp="2019-06-29T06:23:30Z" user="Bratkó József" uid="419389" lat="47.4784549" lon="19.0559732"/>
 <node id="6578041255" visible="true" version="1" changeset="71729044" timestamp="2019-06-29T06:23:30Z" user="Bratkó József" uid="419389" lat="47.4775740" lon="19.0560121"/>
 <way id="24727017" visible="true" version="16" changeset="73143598" timestamp="2019-08-08T08:52:40Z" user="vasony" uid="2982309">
  <nd ref="268751883"/>
  <nd ref="4397231832"/>
  <nd ref="4397231830"/>
  <nd ref="268751874"/>
  <nd ref="4397231824"/>
  <nd ref="4397208036"/>
  <nd ref="268751875"/>
  <nd ref="4397167965"/>
  <nd ref="4397167956"/>
  <nd ref="2083964113"/>
  <nd ref="2083964114"/>
  <nd ref="268751876"/>
  <nd ref="268751877"/>
  <nd ref="4523507754"/>
  <nd ref="369615655"/>
  <nd ref="268751879"/>
  <nd ref="268751880"/>
  <nd ref="268751882"/>
  <nd ref="268751883"/>
  <tag k="addr:city" v="Budapest"/>
  <tag k="addr:housenumber" v="2"/>
  <tag k="addr:postcode" v="1111"/>
  <tag k="addr:street" v="Stoczek József utca"/>
  <tag k="alt_name" v="Stoczek József utcai épület"/>
  <tag k="building" v="university"/>
  <tag k="building:levels" v="5"/>
  <tag k="name" v="ST épület"/>
  <tag k="name:de" v="Gebäude ST"/>
  <tag k="name:en" v="Building ST"/>
  <tag k="toilets:wheelchair" v="yes"/>
  <tag k="wheelchair" v="yes"/>
 </way>
 <way id="24727033" visible="true" version="21" changeset="71729044" timestamp="2019-06-29T06:23:30Z" user="Bratkó József" uid="419389">
  <nd ref="50572346"/>
  <nd ref="6578041255"/>
  <nd ref="2351646280"/>
  <nd ref="5514257954"/>
  <nd ref="4822585837"/>
  <nd ref="369615669"/>
  <nd ref="369615721"/>
  <nd ref="268751967"/>
  <nd ref="4397231837"/>
  <nd ref="4397231840"/>
  <nd ref="3820916226"/>
  <nd ref="6135853026"/>
  <nd ref="4397208034"/>
  <nd ref="369615717"/>
  <nd ref="4397208037"/>
  <nd ref="5042460552"/>
  <nd ref="4551165273"/>
  <nd ref="4397208035"/>
  <nd ref="3159460882"/>
  <tag k="highway" v="service"/>
  <tag k="surface" v="asphalt"/>
 </way>
 <way id="24727086" visible="true" version="12" changeset="84146248" timestamp="2020-04-26T15:08:32Z" user="infeeeee" uid="662512">
  <nd ref="2083964076"/>
  <nd ref="2083964078"/>
  <nd ref="5106116058"/>
  <nd ref="2083964074"/>
  <nd ref="268752226"/>
  <nd ref="268752215"/>
  <nd ref="268752216"/>
  <nd ref="4397208047"/>
  <nd ref="3820916225"/>
  <nd ref="4397208038"/>
  <nd ref="4397208039"/>
  <nd ref="268752217"/>
  <nd ref="268752218"/>
  <nd ref="2083964076"/>
  <tag k="building:colour" v="olivedrab"/>
  <tag k="building:levels" v="6"/>
  <tag k="building:part" v="yes"/>
  <tag k="height" v="18"/>
  <tag k="roof:colour" v="moccasin"/>
 </way>
 <way id="32800583" visible="true" version="9" changeset="65455462" timestamp="2018-12-13T21:32:12Z" user="Tompika" uid="2561972">
  <nd ref="369615669"/>
  <nd ref="4649892740"/>
  <nd ref="369615671"/>
  <nd ref="4675216392"/>
  <nd ref="369615673"/>
  <nd ref="369615678"/>
  <nd ref="4675216400"/>
  <nd ref="4649892715"/>
  <nd ref="369615680"/>
  <nd ref="369615682"/>
  <nd ref="369615684"/>
  <tag k="highway" v="service"/>
  <tag k="priority" v="backward"/>
  <tag k="surface" v="asphalt"/>
 </way>
 <way id="32800584" visible="true" version="5" changeset="65455462" timestamp="2018-12-13T21:32:12Z" user="Tompika" uid="2561972">
  <nd ref="369615678"/>
  <nd ref="4675216391"/>
  <nd ref="4675216398"/>
  <nd ref="369615701"/>
  <nd ref="369615703"/>
  <tag k="highway" v="service"/>
  <tag k="oneway" v="no"/>
  <tag k="surface" v="asphalt"/>
 </way>
 <way id="198237191" visible="true" version="6" changeset="84146248" timestamp="2020-04-26T15:08:32Z" user="infeeeee" uid="662512">
  <nd ref="2083964082"/>
  <nd ref="268752222"/>
  <nd ref="4675216390"/>
  <nd ref="268752223"/>
  <nd ref="2083964071"/>
  <nd ref="2083964074"/>
  <nd ref="5106116058"/>
  <nd ref="2083964078"/>
  <nd ref="2083964082"/>
  <tag k="building:colour" v="olivedrab"/>
  <tag k="building:levels" v="2"/>
  <tag k="building:part" v="yes"/>
  <tag k="height" v="7"/>
  <tag k="roof:colour" v="lightslategray"/>
 </way>
 <way id="198237193" visible="true" version="5" changeset="45961727" timestamp="2017-02-10T01:51:41Z" user="shadowphrogg32642342" uid="1265947">
  <nd ref="2083964099"/>
  <nd ref="2083964096"/>
  <nd ref="2083964104"/>
  <nd ref="4675216418"/>
  <nd ref="4675216417"/>
  <nd ref="2083964106"/>
  <nd ref="4675216416"/>
  <nd ref="4675216415"/>
  <nd ref="2083964109"/>
  <nd ref="2083964111"/>
  <nd ref="2083964110"/>
  <nd ref="2083964099"/>
  <tag k="building:levels" v="2"/>
  <tag k="building:min_level" v="1"/>
  <tag k="building:part" v="yes"/>
 </way>
 <way id="377674741" visible="true" version="9" changeset="77958509" timestamp="2019-12-04T19:54:18Z" user="infeeeee" uid="662512">
  <nd ref="4675216408"/>
  <nd ref="4675216405"/>
  <nd ref="4675216406"/>
  <nd ref="4675216407"/>
  <nd ref="4675216409"/>
  <nd ref="4675216410"/>
  <nd ref="3810589110"/>
  <nd ref="268751709"/>
  <nd ref="3810589121"/>
  <nd ref="4708577501"/>
  <nd ref="4675216411"/>
  <nd ref="4675216412"/>
  <nd ref="4675216413"/>
  <nd ref="3810589126"/>
  <nd ref="4675216414"/>
  <nd ref="4675216403"/>
  <nd ref="4675216402"/>
  <nd ref="4675216401"/>
  <nd ref="4675216408"/>
  <tag k="access" v="private"/>
  <tag k="amenity" v="parking"/>
  <tag k="capacity" v="50"/>
  <tag k="lit" v="yes"/>
  <tag k="operator" v="BME"/>
  <tag k="parking" v="surface"/>
  <tag k="park_ride" v="no"/>
  <tag k="smoothness" v="excellent"/>
  <tag k="supervised" v="no"/>
  <tag k="surface" v="asphalt"/>
 </way>
 <way id="377674754" visible="true" version="4" changeset="84146248" timestamp="2020-04-26T15:08:32Z" user="infeeeee" uid="662512">
  <nd ref="3810589114"/>
  <nd ref="3810589115"/>
  <nd ref="3810589113"/>
  <nd ref="3810589111"/>
  <nd ref="3810589114"/>
  <tag k="building" v="yes"/>
  <tag k="building:colour" v="indianred"/>
  <tag k="height" v="3"/>
  <tag k="roof:colour" v="silver"/>
  <tag k="roof:levels" v="1"/>
  <tag k="roof:shape" v="flat"/>
 </way>
 <way id="442032239" visible="true" version="2" changeset="46446529" timestamp="2017-02-27T16:52:24Z" user="Athoss15" uid="5284554">
  <nd ref="4397231840"/>
  <nd ref="4708577502"/>
  <nd ref="4397208030"/>
  <nd ref="4397231842"/>
  <nd ref="369615669"/>
  <tag k="highway" v="service"/>
  <tag k="service" v="parking_aisle"/>
 </way>
 <way id="473404101" visible="true" version="3" changeset="77958509" timestamp="2019-12-04T19:54:18Z" user="infeeeee" uid="662512">
  <nd ref="4675216391"/>
  <nd ref="4675216390"/>
  <nd ref="268752222"/>
  <nd ref="2083964082"/>
  <nd ref="4675216389"/>
  <nd ref="6135853025"/>
  <nd ref="369615714"/>
  <nd ref="369615708"/>
  <nd ref="369615707"/>
  <nd ref="369615705"/>
  <nd ref="369615703"/>
  <nd ref="369615701"/>
  <nd ref="4675216398"/>
  <nd ref="4675216391"/>
  <tag k="access" v="private"/>
  <tag k="amenity" v="parking"/>
 </way>
 <way id="473404103" visible="true" version="3" changeset="77958509" timestamp="2019-12-04T19:54:18Z" user="infeeeee" uid="662512">
  <nd ref="369615673"/>
  <nd ref="4675216394"/>
  <nd ref="4675216393"/>
  <nd ref="4675216392"/>
  <nd ref="369615673"/>
  <tag k="access" v="private"/>
  <tag k="amenity" v="parking"/>
 </way>
 <way id="473404104" visible="true" version="6" changeset="65455462" timestamp="2018-12-13T21:32:11Z" user="Tompika" uid="2561972">
  <nd ref="268751880"/>
  <nd ref="4675215877"/>
  <nd ref="4675216399"/>
  <nd ref="4675216398"/>
  <nd ref="369615701"/>
  <nd ref="4675216396"/>
  <nd ref="4675216419"/>
  <nd ref="268751882"/>
  <nd ref="268751880"/>
  <tag k="access" v="private"/>
  <tag k="amenity" v="parking"/>
  <tag k="capacity" v="10"/>
  <tag k="lit" v="yes"/>
  <tag k="operator" v="BME"/>
  <tag k="parking" v="surface"/>
  <tag k="park_ride" v="no"/>
  <tag k="smoothness" v="excellent"/>
  <tag k="supervised" v="no"/>
  <tag k="surface" v="asphalt"/>
 </way>
 <way id="473404105" visible="true" version="6" changeset="77958509" timestamp="2019-12-04T19:54:18Z" user="infeeeee" uid="662512">
  <nd ref="4675216400"/>
  <nd ref="3810589138"/>
  <nd ref="3810589118"/>
  <nd ref="4649892740"/>
  <nd ref="369615671"/>
  <nd ref="4675216392"/>
  <nd ref="369615673"/>
  <nd ref="369615678"/>
  <nd ref="4675216400"/>
  <tag k="access" v="private"/>
  <tag k="amenity" v="parking"/>
  <tag k="fee" v="yes"/>
  <tag k="lit" v="yes"/>
  <tag k="operator" v="BME"/>
  <tag k="parking" v="surface"/>
  <tag k="park_ride" v="no"/>
  <tag k="smoothness" v="excellent"/>
  <tag k="supervised" v="no"/>
  <tag k="surface" v="asphalt"/>
 </way>
 <way id="475732484" visible="true" version="2" changeset="51174130" timestamp="2017-08-16T13:51:46Z" user="leveskockaa" uid="2282410">
  <nd ref="268751877"/>
  <nd ref="369615655"/>
  <nd ref="268751879"/>
  <nd ref="268751880"/>
  <nd ref="268751882"/>
  <nd ref="268751883"/>
  <nd ref="268751877"/>
  <tag k="building:levels" v="1.5"/>
  <tag k="building:part" v="yes"/>
 </way>
 <way id="476450390" visible="true" version="5" changeset="84146248" timestamp="2020-04-26T15:08:32Z" user="infeeeee" uid="662512">
  <nd ref="2083964071"/>
  <nd ref="268752223"/>
  <nd ref="4675216390"/>
  <nd ref="268752222"/>
  <nd ref="2083964082"/>
  <nd ref="2083964078"/>
  <nd ref="2083964076"/>
  <nd ref="268752218"/>
  <nd ref="268752217"/>
  <nd ref="4397208039"/>
  <nd ref="4397208038"/>
  <nd ref="3820916225"/>
  <nd ref="4397208047"/>
  <nd ref="268752216"/>
  <nd ref="268752215"/>
  <nd ref="268752226"/>
  <nd ref="2083964074"/>
  <nd ref="2083964071"/>
  <tag k="addr:city" v="Budapest"/>
  <tag k="addr:housenumber" v="4"/>
  <tag k="addr:postcode" v="1111"/>
  <tag k="addr:street" v="Stoczek József utca"/>
  <tag k="alt_name" v="Járműgépészet épület"/>
  <tag k="building" v="university"/>
  <tag k="building:levels" v="6"/>
  <tag k="name" v="J épület"/>
  <tag k="name:de" v="Gebäude J"/>
  <tag k="name:en" v="Building J"/>
  <tag k="toilets:wheelchair" v="yes"/>
  <tag k="wheelchair" v="yes"/>
 </way>
 <way id="543590517" visible="true" version="2" changeset="61166854" timestamp="2018-07-29T15:10:40Z" user="leveskockaa" uid="2282410">
  <nd ref="5254908149"/>
  <nd ref="5254908148"/>
  <nd ref="5254908147"/>
  <nd ref="5254908146"/>
  <nd ref="5254908149"/>
  <tag k="building" v="roof"/>
  <tag k="building:levels" v="1"/>
  <tag k="height" v="3"/>
  <tag k="material" v="metal"/>
 </way>
 <way id="700466944" visible="true" version="1" changeset="71729044" timestamp="2019-06-29T06:23:30Z" user="Bratkó József" uid="419389">
  <nd ref="6578041255"/>
  <nd ref="6578041253"/>
  <tag k="footway" v="sidewalk"/>
  <tag k="highway" v="footway"/>
 </way>
 <way id="700820842" visible="true" version="1" changeset="71780209" timestamp="2019-07-01T10:58:08Z" user="Zsolt Medgyesi" uid="7530849">
  <nd ref="6578041236"/>
  <nd ref="6578041237"/>
  <nd ref="2351646280"/>
  <nd ref="4704008259"/>
  <nd ref="4397231844"/>
  <tag k="barrier" v="fence"/>
 </way>
 <relation id="4627650" visible="true" version="9" changeset="85106729" timestamp="2020-05-12T21:34:47Z" user="gabro00" uid="6626963">
  <member type="way" ref="701952760" role="outer"/>
  <member type="way" ref="26246570" role="outer"/>
  <member type="way" ref="330198863" role="outer"/>
  <member type="way" ref="700820846" role="outer"/>
  <member type="way" ref="477522103" role="outer"/>
  <member type="way" ref="700820845" role="outer"/>
  <member type="way" ref="700820842" role="outer"/>
  <member type="way" ref="700820843" role="outer"/>
  <member type="way" ref="700820841" role="outer"/>
  <member type="way" ref="82478999" role="outer"/>
  <member type="way" ref="24726476" role="outer"/>
  <tag k="amenity" v="university"/>
  <tag k="fax" v="+36 1 463 1110"/>
  <tag k="name" v="Budapesti Műszaki és Gazdaságtudományi Egyetem"/>
  <tag k="name:de" v="Technische und Wirtschaftswissenschaftliche Universität Budapest"/>
  <tag k="name:en" v="Budapest University of Technology and Economics"/>
  <tag k="name:hu" v="Budapesti Műszaki és Gazdaságtudományi Egyetem"/>
  <tag k="phone" v="+36 1 463 1111"/>
  <tag k="short_name" v="BME"/>
  <tag k="type" v="multipolygon"/>
  <tag k="website" v="http://www.bme.hu"/>
  <tag k="wheelchair" v="no"/>
  <tag k="wikidata" v="Q1186843"/>
  <tag k="wikipedia" v="hu:Budapesti Műszaki és Gazdaságtudományi Egyetem"/>
 </relation>
 <relation id="4627659" visible="true" version="26" changeset="87726098" timestamp="2020-07-08T19:29:13Z" user="vasony" uid="2982309">
  <member type="way" ref="228345197" role="outer"/>
  <member type="way" ref="330198860" role="outer"/>
  <member type="way" ref="155220696" role="outer"/>
  <member type="way" ref="228380593" role="outer"/>
  <member type="way" ref="330198850" role="outer"/>
  <member type="way" ref="330198858" role="outer"/>
  <member type="way" ref="330198846" role="outer"/>
  <member type="way" ref="330198862" role="outer"/>
  <member type="way" ref="228381425" role="outer"/>
  <member type="way" ref="330198856" role="outer"/>
  <member type="way" ref="550429741" role="outer"/>
  <member type="way" ref="330198855" role="outer"/>
  <member type="way" ref="330198864" role="outer"/>
  <member type="way" ref="330198848" role="outer"/>
  <member type="way" ref="228346513" role="outer"/>
  <member type="way" ref="330198852" role="outer"/>
  <member type="way" ref="330198853" role="outer"/>
  <member type="way" ref="330198866" role="outer"/>
  <member type="way" ref="330198854" role="outer"/>
  <member type="way" ref="700820846" role="outer"/>
  <member type="way" ref="477522103" role="outer"/>
  <member type="way" ref="700820845" role="outer"/>
  <member type="way" ref="700820842" role="outer"/>
  <member type="way" ref="700820843" role="outer"/>
  <member type="way" ref="700820841" role="outer"/>
  <member type="way" ref="701952760" role="outer"/>
  <member type="way" ref="26246570" role="outer"/>
  <member type="way" ref="330198849" role="outer"/>
  <member type="way" ref="296910358" role="outer"/>
  <member type="way" ref="526214281" role="outer"/>
  <member type="way" ref="380176477" role="outer"/>
  <member type="way" ref="721614870" role="outer"/>
  <member type="way" ref="262071959" role="outer"/>
  <member type="way" ref="296910357" role="outer"/>
  <member type="way" ref="296910361" role="outer"/>
  <member type="way" ref="530858954" role="outer"/>
  <member type="way" ref="262071965" role="outer"/>
  <member type="way" ref="380176476" role="outer"/>
  <member type="way" ref="95842186" role="outer"/>
  <member type="way" ref="385715072" role="outer"/>
  <member type="way" ref="384062346" role="outer"/>
  <member type="way" ref="50676970" role="outer"/>
  <member type="way" ref="327763008" role="outer"/>
  <member type="way" ref="425221263" role="outer"/>
  <member type="way" ref="8049714" role="outer"/>
  <member type="way" ref="34572881" role="outer"/>
  <member type="way" ref="50564662" role="outer"/>
  <member type="way" ref="336011467" role="outer"/>
  <member type="way" ref="50676969" role="outer"/>
  <member type="way" ref="54830186" role="outer"/>
  <member type="way" ref="384337682" role="outer"/>
  <member type="way" ref="381128241" role="outer"/>
  <member type="way" ref="114664765" role="outer"/>
  <member type="way" ref="34572882" role="outer"/>
  <member type="way" ref="333924969" role="outer"/>
  <member type="way" ref="803598044" role="outer"/>
  <member type="way" ref="824287171" role="outer"/>
  <member type="way" ref="720970054" role="outer"/>
  <member type="way" ref="37392516" role="outer"/>
  <member type="way" ref="359415347" role="outer"/>
  <member type="way" ref="655761111" role="outer"/>
  <member type="way" ref="46907459" role="inner"/>
  <tag k="landuse" v="residential"/>
  <tag k="source" v="survey;Bing"/>
  <tag k="type" v="multipolygon"/>
 </relation>
 <relation id="11037512" visible="true" version="1" changeset="84146248" timestamp="2020-04-26T15:08:32Z" user="infeeeee" uid="662512">
  <member type="way" ref="24727017" role="outline"/>
  <member type="way" ref="475732484" role="part"/>
  <member type="way" ref="198237193" role="part"/>
  <member type="way" ref="475732485" role="part"/>
  <tag k="type" v="building"/>
 </relation>
 <relation id="11037513" visible="true" version="1" changeset="84146248" timestamp="2020-04-26T15:08:32Z" user="infeeeee" uid="662512">
  <member type="way" ref="796498705" role="part"/>
  <member type="way" ref="476450390" role="outline"/>
  <member type="way" ref="24727086" role="part"/>
  <member type="way" ref="198237191" role="part"/>
  <member type="way" ref="442030429" role="part"/>
  <tag k="type" v="building"/>
 </relation>
</osm>
