<?xml version="1.0" encoding="UTF-8"?>
<osm version="0.6" generator="CGImap 0.8.3 (1111675 thorn-03.openstreetmap.org)" copyright="OpenStreetMap and contributors" attribution="http://www.openstreetmap.org/copyright" license="http://opendatacommons.org/licenses/odbl/1-0/">
 <bounds minlat="47.4775700" minlon="19.0560200" maxlat="47.4783200" maxlon="19.0570500"/>
 <node id="50572346" visible="true" version="7" changeset="45698374" timestamp="2017-01-31T21:32:11Z" user="Athoss14" uid="5213878" lat="47.4775577" lon="19.0559399"/>
 <node id="268750699" visible="true" version="7" changeset="45961727" timestamp="2017-02-10T01:51:39Z" user="shadowphrogg32642342" uid="1265947" lat="47.4774296" lon="19.0574771"/>
 <node id="268750700" visible="true" version="7" changeset="45961727" timestamp="2017-02-10T01:51:39Z" user="shadowphrogg32642342" uid="1265947" lat="47.4776263" lon="19.0578584"/>
 <node id="268751709" visible="true" version="7" changeset="45698374" timestamp="2017-01-31T21:32:11Z" user="Athoss14" uid="5213878" lat="47.4776659" lon="19.0568501"/>
 <node id="268751710" visible="true" version="6" changeset="45698374" timestamp="2017-01-31T21:32:11Z" user="Athoss14" uid="5213878" lat="47.4773265" lon="19.0562138"/>
 <node id="268751711" visible="true" version="7" changeset="45698374" timestamp="2017-01-31T21:32:11Z" user="Athoss14" uid="5213878" lat="47.4770092" lon="19.0565898"/>
 <node id="268751712" visible="true" version="7" changeset="45698374" timestamp="2017-01-31T21:32:12Z" user="Athoss14" uid="5213878" lat="47.4773469" lon="19.0572227"/>
 <node id="268751874" visible="true" version="6" changeset="45698374" timestamp="2017-01-31T21:32:12Z" user="Athoss14" uid="5213878" lat="47.4780291" lon="19.0570691"/>
 <node id="268751875" visible="true" version="7" changeset="46324474" timestamp="2017-02-23T02:14:50Z" user="shadowphrogg32642342" uid="1265947" lat="47.4781176" lon="19.0572415"/>
 <node id="268751876" visible="true" version="6" changeset="45698374" timestamp="2017-01-31T21:32:12Z" user="Athoss14" uid="5213878" lat="47.4786161" lon="19.0567350"/>
 <node id="268751877" visible="true" version="6" changeset="46231851" timestamp="2017-02-20T03:28:39Z" user="shadowphrogg32642342" uid="1265947" lat="47.4785214" lon="19.0565415"/>
 <node id="268751879" visible="true" version="5" changeset="45698374" timestamp="2017-01-31T21:32:12Z" user="Athoss14" uid="5213878" lat="47.4784277" lon="19.0561996"/>
 <node id="268751880" visible="true" version="5" changeset="45698374" timestamp="2017-01-31T21:32:12Z" user="Athoss14" uid="5213878" lat="47.4783138" lon="19.0562057"/>
 <node id="268751882" visible="true" version="5" changeset="45698374" timestamp="2017-01-31T21:32:12Z" user="Athoss14" uid="5213878" lat="47.4782815" lon="19.0564543"/>
 <node id="268751883" visible="true" version="7" changeset="46231851" timestamp="2017-02-20T03:28:39Z" user="shadowphrogg32642342" uid="1265947" lat="47.4783919" lon="19.0566803"/>
 <node id="268751967" visible="true" version="5" changeset="65455462" timestamp="2018-12-13T21:32:09Z" user="Tompika" uid="2561972" lat="47.4776648" lon="19.0564573"/>
 <node id="268752215" visible="true" version="8" changeset="84146248" timestamp="2020-04-26T15:08:32Z" user="infeeeee" uid="662512" lat="47.4778082" lon="19.0562254"/>
 <node id="268752216" visible="true" version="8" changeset="84146248" timestamp="2020-04-26T15:08:32Z" user="infeeeee" uid="662512" lat="47.4777240" lon="19.0563143"/>
 <node id="268752217" visible="true" version="8" changeset="84146248" timestamp="2020-04-26T15:08:32Z" user="infeeeee" uid="662512" lat="47.4779907" lon="19.0568677"/>
 <node id="268752218" visible="true" version="8" changeset="84146248" timestamp="2020-04-26T15:08:32Z" user="infeeeee" uid="662512" lat="47.4780758" lon="19.0567779"/>
 <node id="268752222" visible="true" version="7" changeset="45698374" timestamp="2017-01-31T21:32:12Z" user="Athoss14" uid="5213878" lat="47.4781845" lon="19.0565688"/>
 <node id="268752223" visible="true" version="7" changeset="45698374" timestamp="2017-01-31T21:32:12Z" user="Athoss14" uid="5213878" lat="47.4780127" lon="19.0562135"/>
 <node id="268752226" visible="true" version="9" changeset="84146248" timestamp="2020-04-26T15:08:32Z" user="infeeeee" uid="662512" lat="47.4779594" lon="19.0565391"/>
 <node id="369615655" visible="true" version="5" changeset="45698374" timestamp="2017-01-31T21:32:12Z" user="Athoss14" uid="5213878" lat="47.4784740" lon="19.0564502"/>
 <node id="369615669" visible="true" version="4" changeset="48222784" timestamp="2017-04-28T09:51:18Z" user="Athoss15" uid="5284554" lat="47.4776032" lon="19.0562550"/>
 <node id="369615671" visible="true" version="4" changeset="65455462" timestamp="2018-12-13T21:32:09Z" user="Tompika" uid="2561972" lat="47.4778065" lon="19.0561727"/>
 <node id="369615673" visible="true" version="4" changeset="65455462" timestamp="2018-12-13T21:32:09Z" user="Tompika" uid="2561972" lat="47.4779880" lon="19.0561598"/>
 <node id="369615678" visible="true" version="4" changeset="65455462" timestamp="2018-12-13T21:32:09Z" user="Tompika" uid="2561972" lat="47.4780722" lon="19.0561572"/>
 <node id="369615680" visible="true" version="3" changeset="45698374" timestamp="2017-01-31T21:32:12Z" user="Athoss14" uid="5213878" lat="47.4783205" lon="19.0561477"/>
 <node id="369615682" visible="true" version="3" changeset="45698374" timestamp="2017-01-31T21:32:12Z" user="Athoss14" uid="5213878" lat="47.4784069" lon="19.0561193"/>
 <node id="369615684" visible="true" version="3" changeset="45698374" timestamp="2017-01-31T21:32:12Z" user="Athoss14" uid="5213878" lat="47.4784560" lon="19.0561302"/>
 <node id="369615701" visible="true" version="4" changeset="65455462" timestamp="2018-12-13T21:32:09Z" user="Tompika" uid="2561972" lat="47.4782389" lon="19.0565165"/>
 <node id="369615703" visible="true" version="4" changeset="65455462" timestamp="2018-12-13T21:32:09Z" user="Tompika" uid="2561972" lat="47.4782455" lon="19.0565466"/>
 <node id="369615705" visible="true" version="4" changeset="65455462" timestamp="2018-12-13T21:32:09Z" user="Tompika" uid="2561972" lat="47.4782500" lon="19.0565926"/>
 <node id="369615707" visible="true" version="4" changeset="65455462" timestamp="2018-12-13T21:32:09Z" user="Tompika" uid="2561972" lat="47.4782452" lon="19.0566300"/>
 <node id="369615708" visible="true" version="4" changeset="65455462" timestamp="2018-12-13T21:32:09Z" user="Tompika" uid="2561972" lat="47.4782326" lon="19.0566640"/>
 <node id="369615714" visible="true" version="4" changeset="65455462" timestamp="2018-12-13T21:32:09Z" user="Tompika" uid="2561972" lat="47.4781500" lon="19.0567542"/>
 <node id="369615716" visible="true" version="4" changeset="65455462" timestamp="2018-12-13T21:32:09Z" user="Tompika" uid="2561972" lat="47.4781100" lon="19.0567957"/>
 <node id="369615717" visible="true" version="5" changeset="45925718" timestamp="2017-02-08T18:11:17Z" user="Athoss15" uid="5284554" lat="47.4779336" lon="19.0569849"/>
 <node id="369615721" visible="true" version="4" changeset="14419672" timestamp="2012-12-26T23:34:02Z" user="BáthoryPéter" uid="408450" lat="47.4776320" lon="19.0563903"/>
 <node id="2016573358" visible="true" version="5" changeset="46446529" timestamp="2017-02-27T16:52:20Z" user="Athoss15" uid="5284554" lat="47.4774343" lon="19.0573919"/>
 <node id="2083964040" visible="true" version="3" changeset="45698374" timestamp="2017-01-31T21:32:14Z" user="Athoss14" uid="5213878" lat="47.4771701" lon="19.0563210"/>
 <node id="2083964042" visible="true" version="3" changeset="45698374" timestamp="2017-01-31T21:32:14Z" user="Athoss14" uid="5213878" lat="47.4771967" lon="19.0563709"/>
 <node id="2083964043" visible="true" version="3" changeset="45698374" timestamp="2017-01-31T21:32:14Z" user="Athoss14" uid="5213878" lat="47.4771997" lon="19.0562864"/>
 <node id="2083964045" visible="true" version="3" changeset="45698374" timestamp="2017-01-31T21:32:14Z" user="Athoss14" uid="5213878" lat="47.4772245" lon="19.0563330"/>
 <node id="2083964055" visible="true" version="5" changeset="46704183" timestamp="2017-03-09T09:34:21Z" user="Athoss15" uid="5284554" lat="47.4774599" lon="19.0574428"/>
 <node id="2083964057" visible="true" version="5" changeset="46704183" timestamp="2017-03-09T09:34:21Z" user="Athoss15" uid="5284554" lat="47.4776538" lon="19.0578274"/>
 <node id="2083964059" visible="true" version="4" changeset="46704183" timestamp="2017-03-09T09:34:21Z" user="Athoss15" uid="5284554" lat="47.4776996" lon="19.0579183"/>
 <node id="2083964061" visible="true" version="5" changeset="46446529" timestamp="2017-02-27T16:52:20Z" user="Athoss15" uid="5284554" lat="47.4776875" lon="19.0571094"/>
 <node id="2083964062" visible="true" version="4" changeset="45961727" timestamp="2017-02-10T01:51:38Z" user="shadowphrogg32642342" uid="1265947" lat="47.4777181" lon="19.0571641"/>
 <node id="2083964068" visible="true" version="4" changeset="45961727" timestamp="2017-02-10T01:51:38Z" user="shadowphrogg32642342" uid="1265947" lat="47.4778635" lon="19.0569973"/>
 <node id="2083964070" visible="true" version="4" changeset="45961727" timestamp="2017-02-10T01:51:38Z" user="shadowphrogg32642342" uid="1265947" lat="47.4779062" lon="19.0576888"/>
 <node id="2083964071" visible="true" version="2" changeset="45698374" timestamp="2017-01-31T21:32:14Z" user="Athoss14" uid="5213878" lat="47.4778999" lon="19.0563329"/>
 <node id="2083964074" visible="true" version="4" changeset="84146248" timestamp="2020-04-26T15:08:32Z" user="infeeeee" uid="662512" lat="47.4779863" lon="19.0565110"/>
 <node id="2083964076" visible="true" version="3" changeset="84146248" timestamp="2020-04-26T15:08:32Z" user="infeeeee" uid="662512" lat="47.4779997" lon="19.0566199"/>
 <node id="2083964078" visible="true" version="4" changeset="84146248" timestamp="2020-04-26T15:08:32Z" user="infeeeee" uid="662512" lat="47.4780254" lon="19.0565930"/>
 <node id="2083964081" visible="true" version="4" changeset="45961727" timestamp="2017-02-10T01:51:38Z" user="shadowphrogg32642342" uid="1265947" lat="47.4781054" lon="19.0574597"/>
 <node id="2083964082" visible="true" version="2" changeset="45698374" timestamp="2017-01-31T21:32:14Z" user="Athoss14" uid="5213878" lat="47.4780717" lon="19.0566883"/>
 <node id="2083964096" visible="true" version="3" changeset="45925718" timestamp="2017-02-08T18:11:17Z" user="Athoss15" uid="5284554" lat="47.4783163" lon="19.0564505"/>
 <node id="2083964099" visible="true" version="2" changeset="44312326" timestamp="2016-12-10T21:39:04Z" user="Athoss06" uid="4950994" lat="47.4783302" lon="19.0562404"/>
 <node id="2083964104" visible="true" version="3" changeset="45925718" timestamp="2017-02-08T18:11:17Z" user="Athoss15" uid="5284554" lat="47.4783636" lon="19.0565334"/>
 <node id="2083964106" visible="true" version="3" changeset="45925718" timestamp="2017-02-08T18:11:17Z" user="Athoss15" uid="5284554" lat="47.4783876" lon="19.0565414"/>
 <node id="2083964109" visible="true" version="2" changeset="44312326" timestamp="2016-12-10T21:39:04Z" user="Athoss06" uid="4950994" lat="47.4784071" lon="19.0565179"/>
 <node id="2083964110" visible="true" version="2" changeset="44312326" timestamp="2016-12-10T21:39:04Z" user="Athoss06" uid="4950994" lat="47.4784218" lon="19.0562331"/>
 <node id="2083964111" visible="true" version="3" changeset="45925718" timestamp="2017-02-08T18:11:17Z" user="Athoss15" uid="5284554" lat="47.4784417" lon="19.0564495"/>
 <node id="2083964113" visible="true" version="3" changeset="45698374" timestamp="2017-01-31T21:32:14Z" user="Athoss14" uid="5213878" lat="47.4784925" lon="19.0568332"/>
 <node id="2083964114" visible="true" version="4" changeset="45698374" timestamp="2017-01-31T21:32:14Z" user="Athoss14" uid="5213878" lat="47.4785034" lon="19.0568557"/>
 <node id="2351646280" visible="true" version="5" changeset="48222784" timestamp="2017-04-28T09:51:18Z" user="Athoss15" uid="5284554" lat="47.4775823" lon="19.0560491">
  <tag k="access" v="private"/>
  <tag k="barrier" v="gate"/>
  <tag k="bicycle" v="yes"/>
  <tag k="foot" v="yes"/>
 </node>
 <node id="3159460865" visible="true" version="6" changeset="47736406" timestamp="2017-04-13T09:28:59Z" user="Athoss15" uid="5284554" lat="47.4781629" lon="19.0576058"/>
 <node id="3159460882" visible="true" version="4" changeset="45698374" timestamp="2017-01-31T21:32:15Z" user="Athoss14" uid="5213878" lat="47.4781602" lon="19.0574359"/>
 <node id="3159460917" visible="true" version="4" changeset="47736406" timestamp="2017-04-13T09:28:59Z" user="Athoss15" uid="5284554" lat="47.4778528" lon="19.0577473">
  <tag k="entrance" v="yes"/>
 </node>
 <node id="3166826553" visible="true" version="2" changeset="46446529" timestamp="2017-02-27T16:52:20Z" user="Athoss15" uid="5284554" lat="47.4773062" lon="19.0573567"/>
 <node id="3410794290" visible="true" version="2" changeset="42095635" timestamp="2016-09-12T09:31:44Z" user="MarsupilamiEater" uid="871272" lat="47.4777908" lon="19.0570311">
  <tag k="amenity" v="bicycle_parking"/>
  <tag k="bicycle_parking" v="stands"/>
  <tag k="capacity" v="30"/>
  <tag k="covered" v="yes"/>
 </node>
 <node id="3810589110" visible="true" version="3" changeset="45925718" timestamp="2017-02-08T18:11:17Z" user="Athoss15" uid="5284554" lat="47.4773551" lon="19.0562648"/>
 <node id="3810589118" visible="true" version="2" changeset="45925718" timestamp="2017-02-08T18:11:17Z" user="Athoss15" uid="5284554" lat="47.4776400" lon="19.0560689"/>
 <node id="3810589121" visible="true" version="4" changeset="46446529" timestamp="2017-02-27T16:52:20Z" user="Athoss15" uid="5284554" lat="47.4776891" lon="19.0568976"/>
 <node id="3810589126" visible="true" version="4" changeset="45925718" timestamp="2017-02-08T18:11:17Z" user="Athoss15" uid="5284554" lat="47.4778142" lon="19.0565452"/>
 <node id="3810589136" visible="true" version="3" changeset="45698374" timestamp="2017-01-31T21:32:15Z" user="Athoss14" uid="5213878" lat="47.4782646" lon="19.0565199"/>
 <node id="3810589138" visible="true" version="4" changeset="45925718" timestamp="2017-02-08T18:11:17Z" user="Athoss15" uid="5284554" lat="47.4782533" lon="19.0560302"/>
 <node id="3820916225" visible="true" version="4" changeset="84146248" timestamp="2020-04-26T15:08:32Z" user="infeeeee" uid="662512" lat="47.4779186" lon="19.0567181">
  <tag k="entrance" v="yes"/>
 </node>
 <node id="3820916226" visible="true" version="3" changeset="65455462" timestamp="2018-12-13T21:32:09Z" user="Tompika" uid="2561972" lat="47.4778386" lon="19.0568061"/>
 <node id="3830987321" visible="true" version="2" changeset="42095635" timestamp="2016-09-12T09:31:44Z" user="MarsupilamiEater" uid="871272" lat="47.4777578" lon="19.0564353">
  <tag k="information" v="map"/>
  <tag k="tourism" v="information"/>
 </node>
 <node id="3830987346" visible="true" version="3" changeset="42096060" timestamp="2016-09-12T09:54:02Z" user="MarsupilamiEater" uid="871272" lat="47.4777182" lon="19.0563661">
  <tag k="emergency" v="fire_hydrant"/>
  <tag k="fire_hydrant:type" v="pillar"/>
 </node>
 <node id="3830987347" visible="true" version="2" changeset="57634642" timestamp="2018-03-29T13:50:05Z" user="leveskockaa" uid="2282410" lat="47.4782296" lon="19.0560521">
  <tag k="colour" v="red"/>
  <tag k="emergency" v="fire_hydrant"/>
  <tag k="fire_hydrant:type" v="pillar"/>
 </node>
 <node id="4397167956" visible="true" version="3" changeset="45698374" timestamp="2017-01-31T21:32:16Z" user="Athoss14" uid="5213878" lat="47.4784802" lon="19.0568463">
  <tag k="entrance" v="yes"/>
 </node>
 <node id="4397167965" visible="true" version="4" changeset="46324474" timestamp="2017-02-23T02:14:59Z" user="shadowphrogg32642342" uid="1265947" lat="47.4784491" lon="19.0568729"/>
 <node id="4397184505" visible="true" version="3" changeset="45961727" timestamp="2017-02-10T01:51:38Z" user="shadowphrogg32642342" uid="1265947" lat="47.4780775" lon="19.0574913"/>
 <node id="4397184507" visible="true" version="3" changeset="45961727" timestamp="2017-02-10T01:51:38Z" user="shadowphrogg32642342" uid="1265947" lat="47.4779602" lon="19.0576269"/>
 <node id="4397208030" visible="true" version="3" changeset="46446529" timestamp="2017-02-27T16:52:20Z" user="Athoss15" uid="5284554" lat="47.4777348" lon="19.0568618"/>
 <node id="4397208031" visible="true" version="4" changeset="46446544" timestamp="2017-02-27T16:52:46Z" user="Athoss15" uid="5284554" lat="47.4781142" lon="19.0573678"/>
 <node id="4397208032" visible="true" version="4" changeset="45961727" timestamp="2017-02-10T01:51:38Z" user="shadowphrogg32642342" uid="1265947" lat="47.4780781" lon="19.0574068"/>
 <node id="4397208033" visible="true" version="2" changeset="44351645" timestamp="2016-12-12T17:10:46Z" user="Athoss06" uid="4950994" lat="47.4778557" lon="19.0569828"/>
 <node id="4397208034" visible="true" version="3" changeset="65455462" timestamp="2018-12-13T21:32:09Z" user="Tompika" uid="2561972" lat="47.4779019" lon="19.0569292"/>
 <node id="4397208035" visible="true" version="2" changeset="45698374" timestamp="2017-01-31T21:32:16Z" user="Athoss14" uid="5213878" lat="47.4781430" lon="19.0573996"/>
 <node id="4397208036" visible="true" version="3" changeset="45698374" timestamp="2017-01-31T21:32:16Z" user="Athoss14" uid="5213878" lat="47.4780695" lon="19.0571517">
  <tag k="entrance" v="yes"/>
 </node>
 <node id="4397208037" visible="true" version="3" changeset="65455462" timestamp="2018-12-13T21:32:09Z" user="Tompika" uid="2561972" lat="47.4780371" lon="19.0571882"/>
 <node id="4397208038" visible="true" version="4" changeset="84146248" timestamp="2020-04-26T15:08:32Z" user="infeeeee" uid="662512" lat="47.4779341" lon="19.0567504"/>
 <node id="4397208039" visible="true" version="3" changeset="84146248" timestamp="2020-04-26T15:08:32Z" user="infeeeee" uid="662512" lat="47.4779793" lon="19.0568440"/>
 <node id="4397208040" visible="true" version="2" changeset="45698374" timestamp="2017-01-31T21:32:16Z" user="Athoss14" uid="5213878" lat="47.4779260" lon="19.0569023"/>
 <node id="4397208041" visible="true" version="3" changeset="46324474" timestamp="2017-02-23T02:15:00Z" user="shadowphrogg32642342" uid="1265947" lat="47.4778794" lon="19.0568081"/>
 <node id="4397208042" visible="true" version="2" changeset="45698374" timestamp="2017-01-31T21:32:16Z" user="Athoss14" uid="5213878" lat="47.4779947" lon="19.0568781"/>
 <node id="4397208043" visible="true" version="2" changeset="45698374" timestamp="2017-01-31T21:32:16Z" user="Athoss14" uid="5213878" lat="47.4779432" lon="19.0569355"/>
 <node id="4397208046" visible="true" version="3" changeset="46324474" timestamp="2017-02-23T02:15:00Z" user="shadowphrogg32642342" uid="1265947" lat="47.4777983" lon="19.0566400"/>
 <node id="4397208047" visible="true" version="4" changeset="84146248" timestamp="2020-04-26T15:08:32Z" user="infeeeee" uid="662512" lat="47.4778531" lon="19.0565821"/>
 <node id="4397208048" visible="true" version="2" changeset="46446529" timestamp="2017-02-27T16:52:20Z" user="Athoss15" uid="5284554" lat="47.4773761" lon="19.0572776">
  <tag k="barrier" v="gate"/>
 </node>
 <node id="4397208055" visible="true" version="2" changeset="46446529" timestamp="2017-02-27T16:52:20Z" user="Athoss15" uid="5284554" lat="47.4776241" lon="19.0569921"/>
 <node id="4397208056" visible="true" version="4" changeset="46446529" timestamp="2017-02-27T16:52:20Z" user="Athoss15" uid="5284554" lat="47.4775947" lon="19.0569372">
  <tag k="access" v="private"/>
  <tag k="entrance" v="yes"/>
 </node>
 <node id="4397208057" visible="true" version="2" changeset="46446529" timestamp="2017-02-27T16:52:21Z" user="Athoss15" uid="5284554" lat="47.4774217" lon="19.0572260"/>
 <node id="4397208058" visible="true" version="3" changeset="45698374" timestamp="2017-01-31T21:32:16Z" user="Athoss14" uid="5213878" lat="47.4773920" lon="19.0571700">
  <tag k="access" v="private"/>
  <tag k="entrance" v="yes"/>
 </node>
 <node id="4397208071" visible="true" version="2" changeset="46446529" timestamp="2017-02-27T16:52:21Z" user="Athoss15" uid="5284554" lat="47.4776692" lon="19.0569009">
  <tag k="natural" v="tree"/>
 </node>
 <node id="4397208072" visible="true" version="2" changeset="46446529" timestamp="2017-02-27T16:52:21Z" user="Athoss15" uid="5284554" lat="47.4776286" lon="19.0569570">
  <tag k="natural" v="tree"/>
 </node>
 <node id="4397208082" visible="true" version="2" changeset="46446529" timestamp="2017-02-27T16:52:21Z" user="Athoss15" uid="5284554" lat="47.4776425" lon="19.0570384">
  <tag k="natural" v="tree"/>
 </node>
 <node id="4397208083" visible="true" version="2" changeset="46446529" timestamp="2017-02-27T16:52:21Z" user="Athoss15" uid="5284554" lat="47.4776681" lon="19.0570054">
  <tag k="natural" v="tree"/>
 </node>
 <node id="4397208084" visible="true" version="2" changeset="46446529" timestamp="2017-02-27T16:52:21Z" user="Athoss15" uid="5284554" lat="47.4777115" lon="19.0569484">
  <tag k="natural" v="tree"/>
 </node>
 <node id="4397231815" visible="true" version="2" changeset="45698374" timestamp="2017-01-31T21:32:16Z" user="Athoss14" uid="5213878" lat="47.4780755" lon="19.0568594"/>
 <node id="4397231816" visible="true" version="3" changeset="45925718" timestamp="2017-02-08T18:11:17Z" user="Athoss15" uid="5284554" lat="47.4781288" lon="19.0568796"/>
 <node id="4397231817" visible="true" version="3" changeset="45925718" timestamp="2017-02-08T18:11:17Z" user="Athoss15" uid="5284554" lat="47.4780617" lon="19.0569590"/>
 <node id="4397231818" visible="true" version="2" changeset="45698374" timestamp="2017-01-31T21:32:16Z" user="Athoss14" uid="5213878" lat="47.4779910" lon="19.0569432"/>
 <node id="4397231820" visible="true" version="2" changeset="45698374" timestamp="2017-01-31T21:32:16Z" user="Athoss14" uid="5213878" lat="47.4782504" lon="19.0566791"/>
 <node id="4397231821" visible="true" version="3" changeset="45925718" timestamp="2017-02-08T18:11:17Z" user="Athoss15" uid="5284554" lat="47.4783019" lon="19.0567126"/>
 <node id="4397231822" visible="true" version="3" changeset="45925718" timestamp="2017-02-08T18:11:18Z" user="Athoss15" uid="5284554" lat="47.4782171" lon="19.0568051"/>
 <node id="4397231823" visible="true" version="2" changeset="45698374" timestamp="2017-01-31T21:32:16Z" user="Athoss14" uid="5213878" lat="47.4781570" lon="19.0567689"/>
 <node id="4397231824" visible="true" version="2" changeset="45698374" timestamp="2017-01-31T21:32:16Z" user="Athoss14" uid="5213878" lat="47.4780593" lon="19.0571309"/>
 <node id="4397231825" visible="true" version="2" changeset="45698374" timestamp="2017-01-31T21:32:17Z" user="Athoss14" uid="5213878" lat="47.4780498" lon="19.0571418"/>
 <node id="4397231826" visible="true" version="2" changeset="45698374" timestamp="2017-01-31T21:32:17Z" user="Athoss14" uid="5213878" lat="47.4779743" lon="19.0569970"/>
 <node id="4397231828" visible="true" version="3" changeset="46324474" timestamp="2017-02-23T02:15:00Z" user="shadowphrogg32642342" uid="1265947" lat="47.4781440" lon="19.0567866"/>
 <node id="4397231829" visible="true" version="3" changeset="46324474" timestamp="2017-02-23T02:15:00Z" user="shadowphrogg32642342" uid="1265947" lat="47.4781622" lon="19.0568285"/>
 <node id="4397231830" visible="true" version="3" changeset="46324474" timestamp="2017-02-23T02:15:00Z" user="shadowphrogg32642342" uid="1265947" lat="47.4781656" lon="19.0569212"/>
 <node id="4397231831" visible="true" version="3" changeset="46324474" timestamp="2017-02-23T02:15:00Z" user="shadowphrogg32642342" uid="1265947" lat="47.4781179" lon="19.0568114"/>
 <node id="4397231832" visible="true" version="3" changeset="46324474" timestamp="2017-02-23T02:15:00Z" user="shadowphrogg32642342" uid="1265947" lat="47.4781917" lon="19.0568964"/>
 <node id="4397231835" visible="true" version="1" changeset="42096060" timestamp="2016-09-12T09:54:01Z" user="MarsupilamiEater" uid="871272" lat="47.4778509" lon="19.0567936"/>
 <node id="4397231836" visible="true" version="1" changeset="42096060" timestamp="2016-09-12T09:54:01Z" user="MarsupilamiEater" uid="871272" lat="47.4778675" lon="19.0567746"/>
 <node id="4397231837" visible="true" version="2" changeset="65455462" timestamp="2018-12-13T21:32:09Z" user="Tompika" uid="2561972" lat="47.4777032" lon="19.0565334"/>
 <node id="4397231838" visible="true" version="1" changeset="42096060" timestamp="2016-09-12T09:54:01Z" user="MarsupilamiEater" uid="871272" lat="47.4777662" lon="19.0564660"/>
 <node id="4397231839" visible="true" version="1" changeset="42096060" timestamp="2016-09-12T09:54:01Z" user="MarsupilamiEater" uid="871272" lat="47.4778987" lon="19.0567388"/>
 <node id="4397231840" visible="true" version="2" changeset="65455462" timestamp="2018-12-13T21:32:09Z" user="Tompika" uid="2561972" lat="47.4778187" lon="19.0567673"/>
 <node id="4397231842" visible="true" version="1" changeset="42096060" timestamp="2016-09-12T09:54:01Z" user="MarsupilamiEater" uid="871272" lat="47.4774810" lon="19.0563409"/>
 <node id="4397231844" visible="true" version="3" changeset="46475417" timestamp="2017-02-28T18:56:08Z" user="Athoss15" uid="5284554" lat="47.4768547" lon="19.0560825"/>
 <node id="4523507754" visible="true" version="3" changeset="54373842" timestamp="2017-12-05T19:20:12Z" user="zsolt d" uid="2077889" lat="47.4784933" lon="19.0564926">
  <tag k="entrance" v="main"/>
 </node>
 <node id="4548468709" visible="true" version="2" changeset="45698374" timestamp="2017-01-31T21:32:17Z" user="Athoss14" uid="5213878" lat="47.4773456" lon="19.0562496">
  <tag k="entrance" v="yes"/>
  <tag k="source" v="Budapest XI. kerület ortofotó 2015"/>
 </node>
 <node id="4551165273" visible="true" version="3" changeset="46446544" timestamp="2017-02-27T16:52:46Z" user="Athoss15" uid="5284554" lat="47.4781239" lon="19.0573574">
  <tag k="barrier" v="chain"/>
 </node>
 <node id="4649892715" visible="true" version="1" changeset="45698374" timestamp="2017-01-31T21:32:07Z" user="Athoss14" uid="5213878" lat="47.4782884" lon="19.0561510"/>
 <node id="4649892732" visible="true" version="1" changeset="45698374" timestamp="2017-01-31T21:32:08Z" user="Athoss14" uid="5213878" lat="47.4782642" lon="19.0566553"/>
 <node id="4649892733" visible="true" version="1" changeset="45698374" timestamp="2017-01-31T21:32:08Z" user="Athoss14" uid="5213878" lat="47.4782716" lon="19.0566307"/>
 <node id="4649892734" visible="true" version="1" changeset="45698374" timestamp="2017-01-31T21:32:08Z" user="Athoss14" uid="5213878" lat="47.4782742" lon="19.0566028"/>
 <node id="4649892735" visible="true" version="1" changeset="45698374" timestamp="2017-01-31T21:32:08Z" user="Athoss14" uid="5213878" lat="47.4782750" lon="19.0565760"/>
 <node id="4649892736" visible="true" version="1" changeset="45698374" timestamp="2017-01-31T21:32:08Z" user="Athoss14" uid="5213878" lat="47.4779719" lon="19.0569843"/>
 <node id="4649892737" visible="true" version="1" changeset="45698374" timestamp="2017-01-31T21:32:08Z" user="Athoss14" uid="5213878" lat="47.4779726" lon="19.0569729"/>
 <node id="4649892738" visible="true" version="1" changeset="45698374" timestamp="2017-01-31T21:32:08Z" user="Athoss14" uid="5213878" lat="47.4779763" lon="19.0569603"/>
 <node id="4649892739" visible="true" version="1" changeset="45698374" timestamp="2017-01-31T21:32:08Z" user="Athoss14" uid="5213878" lat="47.4782735" lon="19.0565542"/>
 <node id="4649892740" visible="true" version="2" changeset="65455462" timestamp="2018-12-13T21:32:09Z" user="Tompika" uid="2561972" lat="47.4776520" lon="19.0562197"/>
 <node id="4675215877" visible="true" version="1" changeset="45925718" timestamp="2017-02-08T18:11:16Z" user="Athoss15" uid="5284554" lat="47.4783160" lon="19.0561884"/>
 <node id="4675216389" visible="true" version="2" changeset="65455462" timestamp="2018-12-13T21:32:09Z" user="Tompika" uid="2561972" lat="47.4781167" lon="19.0567882"/>
 <node id="4675216390" visible="true" version="1" changeset="45925718" timestamp="2017-02-08T18:11:16Z" user="Athoss15" uid="5284554" lat="47.4780314" lon="19.0562522"/>
 <node id="4675216391" visible="true" version="2" changeset="65455462" timestamp="2018-12-13T21:32:09Z" user="Tompika" uid="2561972" lat="47.4780921" lon="19.0561949"/>
 <node id="4675216392" visible="true" version="2" changeset="65455462" timestamp="2018-12-13T21:32:09Z" user="Tompika" uid="2561972" lat="47.4778814" lon="19.0561665"/>
 <node id="4675216393" visible="true" version="2" changeset="65455462" timestamp="2018-12-13T21:32:09Z" user="Tompika" uid="2561972" lat="47.4778833" lon="19.0562337"/>
 <node id="4675216394" visible="true" version="2" changeset="65455462" timestamp="2018-12-13T21:32:09Z" user="Tompika" uid="2561972" lat="47.4779900" lon="19.0562270"/>
 <node id="4675216396" visible="true" version="1" changeset="45925718" timestamp="2017-02-08T18:11:16Z" user="Athoss15" uid="5284554" lat="47.4782675" lon="19.0564971"/>
 <node id="4675216398" visible="true" version="2" changeset="65455462" timestamp="2018-12-13T21:32:09Z" user="Tompika" uid="2561972" lat="47.4781503" lon="19.0563224"/>
 <node id="4675216399" visible="true" version="1" changeset="45925718" timestamp="2017-02-08T18:11:16Z" user="Athoss15" uid="5284554" lat="47.4781828" lon="19.0561867"/>
 <node id="4675216400" visible="true" version="2" changeset="65455462" timestamp="2018-12-13T21:32:09Z" user="Tompika" uid="2561972" lat="47.4782589" lon="19.0561518"/>
 <node id="4675216401" visible="true" version="1" changeset="45925718" timestamp="2017-02-08T18:11:16Z" user="Athoss15" uid="5284554" lat="47.4775587" lon="19.0563228"/>
 <node id="4675216402" visible="true" version="1" changeset="45925718" timestamp="2017-02-08T18:11:16Z" user="Athoss15" uid="5284554" lat="47.4775782" lon="19.0563014"/>
 <node id="4675216403" visible="true" version="1" changeset="45925718" timestamp="2017-02-08T18:11:16Z" user="Athoss15" uid="5284554" lat="47.4776271" lon="19.0564053"/>
 <node id="4675216405" visible="true" version="1" changeset="45925718" timestamp="2017-02-08T18:11:16Z" user="Athoss15" uid="5284554" lat="47.4774760" lon="19.0561538"/>
 <node id="4675216406" visible="true" version="1" changeset="45925718" timestamp="2017-02-08T18:11:16Z" user="Athoss15" uid="5284554" lat="47.4774638" lon="19.0561371"/>
 <node id="4675216407" visible="true" version="1" changeset="45925718" timestamp="2017-02-08T18:11:16Z" user="Athoss15" uid="5284554" lat="47.4774484" lon="19.0561250"/>
 <node id="4675216408" visible="true" version="1" changeset="45925718" timestamp="2017-02-08T18:11:16Z" user="Athoss15" uid="5284554" lat="47.4775313" lon="19.0562665"/>
 <node id="4675216409" visible="true" version="1" changeset="45925718" timestamp="2017-02-08T18:11:16Z" user="Athoss15" uid="5284554" lat="47.4774159" lon="19.0561568"/>
 <node id="4675216410" visible="true" version="1" changeset="45925718" timestamp="2017-02-08T18:11:16Z" user="Athoss15" uid="5284554" lat="47.4774293" lon="19.0561807"/>
 <node id="4675216411" visible="true" version="2" changeset="65455462" timestamp="2018-12-13T21:32:09Z" user="Tompika" uid="2561972" lat="47.4778114" lon="19.0567649"/>
 <node id="4675216412" visible="true" version="1" changeset="45925718" timestamp="2017-02-08T18:11:16Z" user="Athoss15" uid="5284554" lat="47.4777436" lon="19.0566225"/>
 <node id="4675216413" visible="true" version="1" changeset="45925718" timestamp="2017-02-08T18:11:16Z" user="Athoss15" uid="5284554" lat="47.4777776" lon="19.0565823"/>
 <node id="4675216414" visible="true" version="1" changeset="45925718" timestamp="2017-02-08T18:11:16Z" user="Athoss15" uid="5284554" lat="47.4777037" lon="19.0563201"/>
 <node id="4675216415" visible="true" version="1" changeset="45925718" timestamp="2017-02-08T18:11:16Z" user="Athoss15" uid="5284554" lat="47.4784000" lon="19.0565290"/>
 <node id="4675216416" visible="true" version="1" changeset="45925718" timestamp="2017-02-08T18:11:16Z" user="Athoss15" uid="5284554" lat="47.4783941" lon="19.0565363"/>
 <node id="4675216417" visible="true" version="1" changeset="45925718" timestamp="2017-02-08T18:11:16Z" user="Athoss15" uid="5284554" lat="47.4783796" lon="19.0565414"/>
 <node id="4675216418" visible="true" version="1" changeset="45925718" timestamp="2017-02-08T18:11:16Z" user="Athoss15" uid="5284554" lat="47.4783710" lon="19.0565387"/>
 <node id="4675216419" visible="true" version="1" changeset="45925718" timestamp="2017-02-08T18:11:16Z" user="Athoss15" uid="5284554" lat="47.4782746" lon="19.0564408"/>
 <node id="4675216420" visible="true" version="2" changeset="49081102" timestamp="2017-05-29T18:06:33Z" user="leveskockaa" uid="2282410" lat="47.4783496" lon="19.0566952"/>
 <node id="4675216421" visible="true" version="2" changeset="49081102" timestamp="2017-05-29T18:06:33Z" user="leveskockaa" uid="2282410" lat="47.4783016" lon="19.0565692"/>
 <node id="4677495251" visible="true" version="1" changeset="45961727" timestamp="2017-02-10T01:51:35Z" user="shadowphrogg32642342" uid="1265947" lat="47.4779411" lon="19.0576487"/>
 <node id="4677495252" visible="true" version="1" changeset="45961727" timestamp="2017-02-10T01:51:35Z" user="shadowphrogg32642342" uid="1265947" lat="47.4778373" lon="19.0570274"/>
 <node id="4704008259" visible="true" version="1" changeset="46374843" timestamp="2017-02-24T18:22:19Z" user="Athoss15" uid="5284554" lat="47.4773209" lon="19.0560612"/>
 <node id="4708577500" visible="true" version="1" changeset="46446529" timestamp="2017-02-27T16:52:19Z" user="Athoss15" uid="5284554" lat="47.4778035" lon="19.0570661"/>
 <node id="4708577501" visible="true" version="1" changeset="46446529" timestamp="2017-02-27T16:52:19Z" user="Athoss15" uid="5284554" lat="47.4777067" lon="19.0568789"/>
 <node id="4708577502" visible="true" version="1" changeset="46446529" timestamp="2017-02-27T16:52:19Z" user="Athoss15" uid="5284554" lat="47.4777627" lon="19.0568262"/>
 <node id="4708577504" visible="true" version="1" changeset="46446529" timestamp="2017-02-27T16:52:19Z" user="Athoss15" uid="5284554" lat="47.4777827" lon="19.0568666"/>
 <node id="4815489189" visible="true" version="3" changeset="59311245" timestamp="2018-05-27T11:09:26Z" user="Athoss16" uid="7688884" lat="47.4777960" lon="19.0565969">
  <tag k="artist_name" v="Ágh Fábián Sándor"/>
  <tag k="historic" v="memorial"/>
  <tag k="memorial" v="bust"/>
  <tag k="name" v="Csonka János"/>
  <tag k="start_date" v="1989"/>
 </node>
 <node id="4822585837" visible="true" version="1" changeset="48222784" timestamp="2017-04-28T09:51:18Z" user="Athoss15" uid="5284554" lat="47.4775960" lon="19.0561838">
  <tag k="barrier" v="lift_gate"/>
 </node>
 <node id="4884034024" visible="true" version="4" changeset="57634642" timestamp="2018-03-29T13:50:06Z" user="leveskockaa" uid="2282410" lat="47.4783438" lon="19.0566800">
  <tag k="railway" v="switch"/>
  <tag k="railway:switch:electric" v="yes"/>
  <tag k="railway:switch:heated" v="no"/>
  <tag k="railway:turnout_side" v="left"/>
 </node>
 <node id="5042460552" visible="true" version="1" changeset="51225154" timestamp="2017-08-18T08:19:58Z" user="Athoss15" uid="5284554" lat="47.4781128" lon="19.0573351"/>
 <node id="5086735534" visible="true" version="1" changeset="51820631" timestamp="2017-09-07T18:16:53Z" user="leveskockaa" uid="2282410" lat="47.4779504" lon="19.0568058">
  <tag k="access" v="private"/>
  <tag k="amenity" v="charging_station"/>
  <tag k="capacity" v="2"/>
  <tag k="covered" v="no"/>
 </node>
 <node id="5106116050" visible="true" version="3" changeset="57634642" timestamp="2018-03-29T13:50:05Z" user="leveskockaa" uid="2282410" lat="47.4782785" lon="19.0565396">
  <tag k="colour" v="red"/>
  <tag k="emergency" v="fire_hydrant"/>
  <tag k="fire_hydrant:type" v="pillar"/>
 </node>
 <node id="5106116051" visible="true" version="2" changeset="57634642" timestamp="2018-03-29T13:50:06Z" user="leveskockaa" uid="2282410" lat="47.4780108" lon="19.0569956">
  <tag k="colour" v="red"/>
  <tag k="emergency" v="fire_hydrant"/>
  <tag k="fire_hydrant:type" v="pillar"/>
 </node>
 <node id="5106116052" visible="true" version="3" changeset="60173744" timestamp="2018-06-26T08:42:21Z" user="leveskockaa" uid="2282410" lat="47.4778849" lon="19.0562702">
  <tag k="historic" v="locomotive"/>
  <tag k="note" v="kerék/wheel"/>
 </node>
 <node id="5106116053" visible="true" version="1" changeset="52050300" timestamp="2017-09-14T20:05:43Z" user="leveskockaa" uid="2282410" lat="47.4783331" lon="19.0566563"/>
 <node id="5106116054" visible="true" version="1" changeset="52050300" timestamp="2017-09-14T20:05:43Z" user="leveskockaa" uid="2282410" lat="47.4783157" lon="19.0566172"/>
 <node id="5106116055" visible="true" version="1" changeset="52050300" timestamp="2017-09-14T20:05:43Z" user="leveskockaa" uid="2282410" lat="47.4782958" lon="19.0565741"/>
 <node id="5106116056" visible="true" version="1" changeset="52050300" timestamp="2017-09-14T20:05:43Z" user="leveskockaa" uid="2282410" lat="47.4783243" lon="19.0566364"/>
 <node id="5106116057" visible="true" version="1" changeset="52050300" timestamp="2017-09-14T20:05:43Z" user="leveskockaa" uid="2282410" lat="47.4783070" lon="19.0565981"/>
 <node id="5106116058" visible="true" version="3" changeset="84146248" timestamp="2020-04-26T15:08:32Z" user="infeeeee" uid="662512" lat="47.4780068" lon="19.0565539">
  <tag k="level" v="6"/>
  <tag k="location" v="wall"/>
  <tag k="tourism" v="artwork"/>
 </node>
 <node id="5514257954" visible="true" version="1" changeset="57634642" timestamp="2018-03-29T13:50:05Z" user="leveskockaa" uid="2282410" lat="47.4775890" lon="19.0561147">
  <tag k="traffic_calming" v="bump"/>
 </node>
 <node id="6135853023" visible="true" version="1" changeset="65455462" timestamp="2018-12-13T21:32:08Z" user="Tompika" uid="2561972" lat="47.4780670" lon="19.0568414"/>
 <node id="6135853024" visible="true" version="1" changeset="65455462" timestamp="2018-12-13T21:32:08Z" user="Tompika" uid="2561972" lat="47.4779834" lon="19.0569313"/>
 <node id="6135853025" visible="true" version="1" changeset="65455462" timestamp="2018-12-13T21:32:08Z" user="Tompika" uid="2561972" lat="47.4781359" lon="19.0567686"/>
 <node id="6135853026" visible="true" version="1" changeset="65455462" timestamp="2018-12-13T21:32:08Z" user="Tompika" uid="2561972" lat="47.4778536" lon="19.0568353"/>
 <node id="6578041236" visible="true" version="1" changeset="71729044" timestamp="2019-06-29T06:23:30Z" user="Bratkó József" uid="419389" lat="47.4791360" lon="19.0559600"/>
 <node id="6578041237" visible="true" version="1" changeset="71729044" timestamp="2019-06-29T06:23:30Z" user="Bratkó József" uid="419389" lat="47.4784597" lon="19.0559943">
  <tag k="access" v="customers"/>
  <tag k="barrier" v="gate"/>
  <tag k="bicycle" v="yes"/>
  <tag k="foot" v="yes"/>
 </node>
 <node id="6578041255" visible="true" version="1" changeset="71729044" timestamp="2019-06-29T06:23:30Z" user="Bratkó József" uid="419389" lat="47.4775740" lon="19.0560121"/>
 <node id="7449175807" visible="true" version="1" changeset="84146248" timestamp="2020-04-26T15:08:32Z" user="infeeeee" uid="662512" lat="47.4779177" lon="19.0565827"/>
 <node id="7449175808" visible="true" version="1" changeset="84146248" timestamp="2020-04-26T15:08:32Z" user="infeeeee" uid="662512" lat="47.4779569" lon="19.0566647"/>
 <node id="7449175809" visible="true" version="1" changeset="84146248" timestamp="2020-04-26T15:08:32Z" user="infeeeee" uid="662512" lat="47.4778189" lon="19.0565877">
  <tag k="natural" v="tree"/>
 </node>
 <node id="7449175810" visible="true" version="1" changeset="84146248" timestamp="2020-04-26T15:08:32Z" user="infeeeee" uid="662512" lat="47.4779559" lon="19.0569017">
  <tag k="natural" v="tree"/>
 </node>
 <node id="7449175811" visible="true" version="1" changeset="84146248" timestamp="2020-04-26T15:08:32Z" user="infeeeee" uid="662512" lat="47.4778070" lon="19.0565987">
  <tag k="natural" v="tree"/>
 </node>
 <way id="24726989" visible="true" version="11" changeset="73143598" timestamp="2019-08-08T08:52:40Z" user="vasony" uid="2982309">
  <nd ref="268751709"/>
  <nd ref="4397208056"/>
  <nd ref="4397208058"/>
  <nd ref="268751712"/>
  <nd ref="268751711"/>
  <nd ref="2083964042"/>
  <nd ref="2083964040"/>
  <nd ref="2083964043"/>
  <nd ref="2083964045"/>
  <nd ref="268751710"/>
  <nd ref="4548468709"/>
  <nd ref="268751709"/>
  <tag k="addr:city" v="Budapest"/>
  <tag k="addr:housenumber" v="4"/>
  <tag k="addr:postcode" v="1111"/>
  <tag k="addr:street" v="Stoczek József utca"/>
  <tag k="alt_name" v="Gépgyártás-technológia épület"/>
  <tag k="building" v="university"/>
  <tag k="building:levels" v="2"/>
  <tag k="name" v="G épület"/>
  <tag k="name:de" v="Gebäude G"/>
  <tag k="name:en" v="Building G"/>
 </way>
 <way id="24727017" visible="true" version="16" changeset="73143598" timestamp="2019-08-08T08:52:40Z" user="vasony" uid="2982309">
  <nd ref="268751883"/>
  <nd ref="4397231832"/>
  <nd ref="4397231830"/>
  <nd ref="268751874"/>
  <nd ref="4397231824"/>
  <nd ref="4397208036"/>
  <nd ref="268751875"/>
  <nd ref="4397167965"/>
  <nd ref="4397167956"/>
  <nd ref="2083964113"/>
  <nd ref="2083964114"/>
  <nd ref="268751876"/>
  <nd ref="268751877"/>
  <nd ref="4523507754"/>
  <nd ref="369615655"/>
  <nd ref="268751879"/>
  <nd ref="268751880"/>
  <nd ref="268751882"/>
  <nd ref="268751883"/>
  <tag k="addr:city" v="Budapest"/>
  <tag k="addr:housenumber" v="2"/>
  <tag k="addr:postcode" v="1111"/>
  <tag k="addr:street" v="Stoczek József utca"/>
  <tag k="alt_name" v="Stoczek József utcai épület"/>
  <tag k="building" v="university"/>
  <tag k="building:levels" v="5"/>
  <tag k="name" v="ST épület"/>
  <tag k="name:de" v="Gebäude ST"/>
  <tag k="name:en" v="Building ST"/>
  <tag k="toilets:wheelchair" v="yes"/>
  <tag k="wheelchair" v="yes"/>
 </way>
 <way id="24727033" visible="true" version="21" changeset="71729044" timestamp="2019-06-29T06:23:30Z" user="Bratkó József" uid="419389">
  <nd ref="50572346"/>
  <nd ref="6578041255"/>
  <nd ref="2351646280"/>
  <nd ref="5514257954"/>
  <nd ref="4822585837"/>
  <nd ref="369615669"/>
  <nd ref="369615721"/>
  <nd ref="268751967"/>
  <nd ref="4397231837"/>
  <nd ref="4397231840"/>
  <nd ref="3820916226"/>
  <nd ref="6135853026"/>
  <nd ref="4397208034"/>
  <nd ref="369615717"/>
  <nd ref="4397208037"/>
  <nd ref="5042460552"/>
  <nd ref="4551165273"/>
  <nd ref="4397208035"/>
  <nd ref="3159460882"/>
  <tag k="highway" v="service"/>
  <tag k="surface" v="asphalt"/>
 </way>
 <way id="24727086" visible="true" version="12" changeset="84146248" timestamp="2020-04-26T15:08:32Z" user="infeeeee" uid="662512">
  <nd ref="2083964076"/>
  <nd ref="2083964078"/>
  <nd ref="5106116058"/>
  <nd ref="2083964074"/>
  <nd ref="268752226"/>
  <nd ref="268752215"/>
  <nd ref="268752216"/>
  <nd ref="4397208047"/>
  <nd ref="3820916225"/>
  <nd ref="4397208038"/>
  <nd ref="4397208039"/>
  <nd ref="268752217"/>
  <nd ref="268752218"/>
  <nd ref="2083964076"/>
  <tag k="building:colour" v="olivedrab"/>
  <tag k="building:levels" v="6"/>
  <tag k="building:part" v="yes"/>
  <tag k="height" v="18"/>
  <tag k="roof:colour" v="moccasin"/>
 </way>
 <way id="32800583" visible="true" version="9" changeset="65455462" timestamp="2018-12-13T21:32:12Z" user="Tompika" uid="2561972">
  <nd ref="369615669"/>
  <nd ref="4649892740"/>
  <nd ref="369615671"/>
  <nd ref="4675216392"/>
  <nd ref="369615673"/>
  <nd ref="369615678"/>
  <nd ref="4675216400"/>
  <nd ref="4649892715"/>
  <nd ref="369615680"/>
  <nd ref="369615682"/>
  <nd ref="369615684"/>
  <tag k="highway" v="service"/>
  <tag k="priority" v="backward"/>
  <tag k="surface" v="asphalt"/>
 </way>
 <way id="32800584" visible="true" version="5" changeset="65455462" timestamp="2018-12-13T21:32:12Z" user="Tompika" uid="2561972">
  <nd ref="369615678"/>
  <nd ref="4675216391"/>
  <nd ref="4675216398"/>
  <nd ref="369615701"/>
  <nd ref="369615703"/>
  <tag k="highway" v="service"/>
  <tag k="oneway" v="no"/>
  <tag k="surface" v="asphalt"/>
 </way>
 <way id="198237177" visible="true" version="7" changeset="46446529" timestamp="2017-02-27T16:52:22Z" user="Athoss15" uid="5284554">
  <nd ref="2083964057"/>
  <nd ref="268750700"/>
  <nd ref="268750699"/>
  <nd ref="2083964055"/>
  <nd ref="2016573358"/>
  <nd ref="2083964061"/>
  <nd ref="2083964062"/>
  <nd ref="4708577500"/>
  <nd ref="4677495252"/>
  <nd ref="2083964068"/>
  <nd ref="2083964081"/>
  <nd ref="4397184505"/>
  <nd ref="4397184507"/>
  <nd ref="4677495251"/>
  <nd ref="2083964070"/>
  <nd ref="3159460917"/>
  <nd ref="2083964059"/>
  <nd ref="2083964057"/>
  <tag k="building:levels" v="2"/>
  <tag k="building:part" v="yes"/>
 </way>
 <way id="198237186" visible="true" version="4" changeset="45961727" timestamp="2017-02-10T01:51:40Z" user="shadowphrogg32642342" uid="1265947">
  <nd ref="4397184505"/>
  <nd ref="4677495252"/>
  <nd ref="2083964068"/>
  <nd ref="4397208032"/>
  <nd ref="2083964081"/>
  <nd ref="4397184505"/>
  <tag k="building:levels" v="2"/>
  <tag k="building:min_level" v="1"/>
  <tag k="building:part" v="yes"/>
 </way>
 <way id="198237191" visible="true" version="6" changeset="84146248" timestamp="2020-04-26T15:08:32Z" user="infeeeee" uid="662512">
  <nd ref="2083964082"/>
  <nd ref="268752222"/>
  <nd ref="4675216390"/>
  <nd ref="268752223"/>
  <nd ref="2083964071"/>
  <nd ref="2083964074"/>
  <nd ref="5106116058"/>
  <nd ref="2083964078"/>
  <nd ref="2083964082"/>
  <tag k="building:colour" v="olivedrab"/>
  <tag k="building:levels" v="2"/>
  <tag k="building:part" v="yes"/>
  <tag k="height" v="7"/>
  <tag k="roof:colour" v="lightslategray"/>
 </way>
 <way id="198237193" visible="true" version="5" changeset="45961727" timestamp="2017-02-10T01:51:41Z" user="shadowphrogg32642342" uid="1265947">
  <nd ref="2083964099"/>
  <nd ref="2083964096"/>
  <nd ref="2083964104"/>
  <nd ref="4675216418"/>
  <nd ref="4675216417"/>
  <nd ref="2083964106"/>
  <nd ref="4675216416"/>
  <nd ref="4675216415"/>
  <nd ref="2083964109"/>
  <nd ref="2083964111"/>
  <nd ref="2083964110"/>
  <nd ref="2083964099"/>
  <tag k="building:levels" v="2"/>
  <tag k="building:min_level" v="1"/>
  <tag k="building:part" v="yes"/>
 </way>
 <way id="311128588" visible="true" version="4" changeset="46446529" timestamp="2017-02-27T16:52:23Z" user="Athoss15" uid="5284554">
  <nd ref="4397208030"/>
  <nd ref="4397208055"/>
  <nd ref="4397208057"/>
  <nd ref="4397208048"/>
  <nd ref="3166826553"/>
  <tag k="highway" v="footway"/>
 </way>
 <way id="314306826" visible="true" version="6" changeset="57634642" timestamp="2018-03-29T13:50:07Z" user="leveskockaa" uid="2282410">
  <nd ref="3159460865"/>
  <nd ref="4708577504"/>
  <tag k="highway" v="footway"/>
  <tag k="motorcycle" v="no"/>
 </way>
 <way id="377674741" visible="true" version="9" changeset="77958509" timestamp="2019-12-04T19:54:18Z" user="infeeeee" uid="662512">
  <nd ref="4675216408"/>
  <nd ref="4675216405"/>
  <nd ref="4675216406"/>
  <nd ref="4675216407"/>
  <nd ref="4675216409"/>
  <nd ref="4675216410"/>
  <nd ref="3810589110"/>
  <nd ref="268751709"/>
  <nd ref="3810589121"/>
  <nd ref="4708577501"/>
  <nd ref="4675216411"/>
  <nd ref="4675216412"/>
  <nd ref="4675216413"/>
  <nd ref="3810589126"/>
  <nd ref="4675216414"/>
  <nd ref="4675216403"/>
  <nd ref="4675216402"/>
  <nd ref="4675216401"/>
  <nd ref="4675216408"/>
  <tag k="access" v="private"/>
  <tag k="amenity" v="parking"/>
  <tag k="capacity" v="50"/>
  <tag k="lit" v="yes"/>
  <tag k="operator" v="BME"/>
  <tag k="parking" v="surface"/>
  <tag k="park_ride" v="no"/>
  <tag k="smoothness" v="excellent"/>
  <tag k="supervised" v="no"/>
  <tag k="surface" v="asphalt"/>
 </way>
 <way id="378673844" visible="true" version="2" changeset="42096060" timestamp="2016-09-12T09:54:02Z" user="MarsupilamiEater" uid="871272">
  <nd ref="3820916225"/>
  <nd ref="4397231839"/>
  <nd ref="4397231836"/>
  <tag k="highway" v="footway"/>
 </way>
 <way id="442030424" visible="true" version="3" changeset="77958509" timestamp="2019-12-04T19:54:18Z" user="infeeeee" uid="662512">
  <nd ref="4397208031"/>
  <nd ref="4397208032"/>
  <nd ref="4397208033"/>
  <nd ref="4397208034"/>
  <nd ref="369615717"/>
  <nd ref="4397208037"/>
  <nd ref="5042460552"/>
  <nd ref="4551165273"/>
  <nd ref="4397208031"/>
  <tag k="access" v="private"/>
  <tag k="amenity" v="parking"/>
  <tag k="capacity" v="16"/>
 </way>
 <way id="442030427" visible="true" version="3" changeset="77958509" timestamp="2019-12-04T19:54:18Z" user="infeeeee" uid="662512">
  <nd ref="4397208038"/>
  <nd ref="4397208039"/>
  <nd ref="4397208040"/>
  <nd ref="4397208034"/>
  <nd ref="6135853026"/>
  <nd ref="4397208041"/>
  <nd ref="4397208038"/>
  <tag k="access" v="private"/>
  <tag k="amenity" v="parking"/>
  <tag k="capacity" v="3"/>
 </way>
 <way id="442030428" visible="true" version="2" changeset="45698374" timestamp="2017-01-31T21:32:25Z" user="Athoss14" uid="5213878">
  <nd ref="4397208039"/>
  <nd ref="268752217"/>
  <nd ref="4397208042"/>
  <nd ref="4397208043"/>
  <nd ref="4397208040"/>
  <nd ref="4397208039"/>
  <tag k="landuse" v="grass"/>
 </way>
 <way id="442030429" visible="true" version="4" changeset="84146248" timestamp="2020-04-26T15:08:32Z" user="infeeeee" uid="662512">
  <nd ref="4397208038"/>
  <nd ref="4397208041"/>
  <nd ref="4397208046"/>
  <nd ref="4397208047"/>
  <nd ref="3820916225"/>
  <nd ref="4397208038"/>
  <tag k="building:colour" v="lightslategray"/>
  <tag k="building:levels" v="1"/>
  <tag k="building:part" v="roof"/>
  <tag k="height" v="4"/>
  <tag k="min_height" v="3"/>
  <tag k="roof:colour" v="lightslategray"/>
 </way>
 <way id="442030432" visible="true" version="1" changeset="42095635" timestamp="2016-09-12T09:31:43Z" user="MarsupilamiEater" uid="871272">
  <nd ref="4397208055"/>
  <nd ref="4397208056"/>
  <tag k="highway" v="footway"/>
 </way>
 <way id="442032224" visible="true" version="3" changeset="65455462" timestamp="2018-12-13T21:32:11Z" user="Tompika" uid="2561972">
  <nd ref="369615717"/>
  <nd ref="6135853024"/>
  <nd ref="6135853023"/>
  <nd ref="369615716"/>
  <nd ref="4675216389"/>
  <nd ref="6135853025"/>
  <nd ref="369615714"/>
  <nd ref="369615708"/>
  <nd ref="369615707"/>
  <nd ref="369615705"/>
  <nd ref="369615703"/>
  <tag k="highway" v="service"/>
  <tag k="oneway" v="yes"/>
  <tag k="surface" v="asphalt"/>
 </way>
 <way id="442032226" visible="true" version="3" changeset="65455462" timestamp="2018-12-13T21:32:11Z" user="Tompika" uid="2561972">
  <nd ref="4397231815"/>
  <nd ref="4397231816"/>
  <nd ref="4397231817"/>
  <nd ref="4397231818"/>
  <nd ref="6135853024"/>
  <nd ref="6135853023"/>
  <nd ref="4397231815"/>
  <tag k="access" v="private"/>
  <tag k="amenity" v="parking"/>
  <tag k="capacity" v="3"/>
 </way>
 <way id="442032228" visible="true" version="3" changeset="65455462" timestamp="2018-12-13T21:32:11Z" user="Tompika" uid="2561972">
  <nd ref="4397231820"/>
  <nd ref="4397231821"/>
  <nd ref="4397231822"/>
  <nd ref="4397231823"/>
  <nd ref="369615714"/>
  <nd ref="369615708"/>
  <nd ref="4397231820"/>
  <tag k="access" v="private"/>
  <tag k="amenity" v="parking"/>
  <tag k="capacity" v="3"/>
 </way>
 <way id="442032230" visible="true" version="2" changeset="45698374" timestamp="2017-01-31T21:32:25Z" user="Athoss14" uid="5213878">
  <nd ref="4397231824"/>
  <nd ref="4397231825"/>
  <nd ref="4397231826"/>
  <nd ref="4649892736"/>
  <nd ref="4649892737"/>
  <nd ref="4649892738"/>
  <nd ref="4397231818"/>
  <nd ref="4397231817"/>
  <nd ref="4397231816"/>
  <nd ref="4397231815"/>
  <nd ref="4397231831"/>
  <nd ref="4397231830"/>
  <nd ref="268751874"/>
  <nd ref="4397231824"/>
  <tag k="landuse" v="grass"/>
 </way>
 <way id="442032232" visible="true" version="4" changeset="77958509" timestamp="2019-12-04T19:54:18Z" user="infeeeee" uid="662512">
  <nd ref="4397231828"/>
  <nd ref="4397231829"/>
  <nd ref="4397231832"/>
  <nd ref="4397231830"/>
  <nd ref="4397231831"/>
  <nd ref="369615716"/>
  <nd ref="4675216389"/>
  <nd ref="6135853025"/>
  <nd ref="4397231828"/>
  <tag k="access" v="private"/>
  <tag k="amenity" v="parking"/>
  <tag k="capacity" v="1"/>
 </way>
 <way id="442032234" visible="true" version="3" changeset="45925718" timestamp="2017-02-08T18:11:18Z" user="Athoss15" uid="5284554">
  <nd ref="4397231832"/>
  <nd ref="4397231829"/>
  <nd ref="4397231828"/>
  <nd ref="4397231823"/>
  <nd ref="4397231822"/>
  <nd ref="4397231821"/>
  <nd ref="4397231820"/>
  <nd ref="4649892732"/>
  <nd ref="4649892733"/>
  <nd ref="4649892734"/>
  <nd ref="4649892735"/>
  <nd ref="4649892739"/>
  <nd ref="3810589136"/>
  <nd ref="4675216396"/>
  <nd ref="4675216419"/>
  <nd ref="268751882"/>
  <nd ref="268751883"/>
  <nd ref="4397231832"/>
  <tag k="landuse" v="grass"/>
 </way>
 <way id="442032236" visible="true" version="1" changeset="42096060" timestamp="2016-09-12T09:54:01Z" user="MarsupilamiEater" uid="871272">
  <nd ref="4397231835"/>
  <nd ref="4397231836"/>
  <tag k="highway" v="steps"/>
 </way>
 <way id="442032237" visible="true" version="1" changeset="42096060" timestamp="2016-09-12T09:54:01Z" user="MarsupilamiEater" uid="871272">
  <nd ref="4397231835"/>
  <nd ref="3820916226"/>
  <tag k="highway" v="footway"/>
 </way>
 <way id="442032238" visible="true" version="1" changeset="42096060" timestamp="2016-09-12T09:54:01Z" user="MarsupilamiEater" uid="871272">
  <nd ref="4397231837"/>
  <nd ref="4397231838"/>
  <nd ref="4397231839"/>
  <tag k="highway" v="footway"/>
 </way>
 <way id="442032239" visible="true" version="2" changeset="46446529" timestamp="2017-02-27T16:52:24Z" user="Athoss15" uid="5284554">
  <nd ref="4397231840"/>
  <nd ref="4708577502"/>
  <nd ref="4397208030"/>
  <nd ref="4397231842"/>
  <nd ref="369615669"/>
  <tag k="highway" v="service"/>
  <tag k="service" v="parking_aisle"/>
 </way>
 <way id="473404101" visible="true" version="3" changeset="77958509" timestamp="2019-12-04T19:54:18Z" user="infeeeee" uid="662512">
  <nd ref="4675216391"/>
  <nd ref="4675216390"/>
  <nd ref="268752222"/>
  <nd ref="2083964082"/>
  <nd ref="4675216389"/>
  <nd ref="6135853025"/>
  <nd ref="369615714"/>
  <nd ref="369615708"/>
  <nd ref="369615707"/>
  <nd ref="369615705"/>
  <nd ref="369615703"/>
  <nd ref="369615701"/>
  <nd ref="4675216398"/>
  <nd ref="4675216391"/>
  <tag k="access" v="private"/>
  <tag k="amenity" v="parking"/>
 </way>
 <way id="473404103" visible="true" version="3" changeset="77958509" timestamp="2019-12-04T19:54:18Z" user="infeeeee" uid="662512">
  <nd ref="369615673"/>
  <nd ref="4675216394"/>
  <nd ref="4675216393"/>
  <nd ref="4675216392"/>
  <nd ref="369615673"/>
  <tag k="access" v="private"/>
  <tag k="amenity" v="parking"/>
 </way>
 <way id="473404104" visible="true" version="6" changeset="65455462" timestamp="2018-12-13T21:32:11Z" user="Tompika" uid="2561972">
  <nd ref="268751880"/>
  <nd ref="4675215877"/>
  <nd ref="4675216399"/>
  <nd ref="4675216398"/>
  <nd ref="369615701"/>
  <nd ref="4675216396"/>
  <nd ref="4675216419"/>
  <nd ref="268751882"/>
  <nd ref="268751880"/>
  <tag k="access" v="private"/>
  <tag k="amenity" v="parking"/>
  <tag k="capacity" v="10"/>
  <tag k="lit" v="yes"/>
  <tag k="operator" v="BME"/>
  <tag k="parking" v="surface"/>
  <tag k="park_ride" v="no"/>
  <tag k="smoothness" v="excellent"/>
  <tag k="supervised" v="no"/>
  <tag k="surface" v="asphalt"/>
 </way>
 <way id="473404105" visible="true" version="6" changeset="77958509" timestamp="2019-12-04T19:54:18Z" user="infeeeee" uid="662512">
  <nd ref="4675216400"/>
  <nd ref="3810589138"/>
  <nd ref="3810589118"/>
  <nd ref="4649892740"/>
  <nd ref="369615671"/>
  <nd ref="4675216392"/>
  <nd ref="369615673"/>
  <nd ref="369615678"/>
  <nd ref="4675216400"/>
  <tag k="access" v="private"/>
  <tag k="amenity" v="parking"/>
  <tag k="fee" v="yes"/>
  <tag k="lit" v="yes"/>
  <tag k="operator" v="BME"/>
  <tag k="parking" v="surface"/>
  <tag k="park_ride" v="no"/>
  <tag k="smoothness" v="excellent"/>
  <tag k="supervised" v="no"/>
  <tag k="surface" v="asphalt"/>
 </way>
 <way id="473404106" visible="true" version="8" changeset="71944527" timestamp="2019-07-05T20:21:33Z" user="Tompika" uid="2561972">
  <nd ref="4675216421"/>
  <nd ref="4884034024"/>
  <nd ref="4675216420"/>
  <tag k="historic" v="railway"/>
  <tag k="note" v="Járműmérnöki kar épülete mellett kiállított vasúti sín"/>
  <tag k="railway" v="rail"/>
  <tag k="railway:preserved" v="yes"/>
 </way>
 <way id="473680964" visible="true" version="2" changeset="46446529" timestamp="2017-02-27T16:52:24Z" user="Athoss15" uid="5284554">
  <nd ref="4397184505"/>
  <nd ref="4397184507"/>
  <nd ref="2083964062"/>
  <nd ref="4708577500"/>
  <nd ref="4677495252"/>
  <nd ref="4397184505"/>
  <tag k="building:levels" v="2"/>
  <tag k="building:part" v="yes"/>
 </way>
 <way id="475732484" visible="true" version="2" changeset="51174130" timestamp="2017-08-16T13:51:46Z" user="leveskockaa" uid="2282410">
  <nd ref="268751877"/>
  <nd ref="369615655"/>
  <nd ref="268751879"/>
  <nd ref="268751880"/>
  <nd ref="268751882"/>
  <nd ref="268751883"/>
  <nd ref="268751877"/>
  <tag k="building:levels" v="1.5"/>
  <tag k="building:part" v="yes"/>
 </way>
 <way id="475732485" visible="true" version="1" changeset="46231851" timestamp="2017-02-20T03:28:36Z" user="shadowphrogg32642342" uid="1265947">
  <nd ref="268751877"/>
  <nd ref="268751883"/>
  <nd ref="4397231832"/>
  <nd ref="4397231830"/>
  <nd ref="268751874"/>
  <nd ref="4397231824"/>
  <nd ref="4397208036"/>
  <nd ref="268751875"/>
  <nd ref="4397167965"/>
  <nd ref="4397167956"/>
  <nd ref="2083964113"/>
  <nd ref="2083964114"/>
  <nd ref="268751876"/>
  <nd ref="268751877"/>
  <tag k="building:levels" v="5"/>
  <tag k="building:part" v="yes"/>
 </way>
 <way id="476450390" visible="true" version="5" changeset="84146248" timestamp="2020-04-26T15:08:32Z" user="infeeeee" uid="662512">
  <nd ref="2083964071"/>
  <nd ref="268752223"/>
  <nd ref="4675216390"/>
  <nd ref="268752222"/>
  <nd ref="2083964082"/>
  <nd ref="2083964078"/>
  <nd ref="2083964076"/>
  <nd ref="268752218"/>
  <nd ref="268752217"/>
  <nd ref="4397208039"/>
  <nd ref="4397208038"/>
  <nd ref="3820916225"/>
  <nd ref="4397208047"/>
  <nd ref="268752216"/>
  <nd ref="268752215"/>
  <nd ref="268752226"/>
  <nd ref="2083964074"/>
  <nd ref="2083964071"/>
  <tag k="addr:city" v="Budapest"/>
  <tag k="addr:housenumber" v="4"/>
  <tag k="addr:postcode" v="1111"/>
  <tag k="addr:street" v="Stoczek József utca"/>
  <tag k="alt_name" v="Járműgépészet épület"/>
  <tag k="building" v="university"/>
  <tag k="building:levels" v="6"/>
  <tag k="name" v="J épület"/>
  <tag k="name:de" v="Gebäude J"/>
  <tag k="name:en" v="Building J"/>
  <tag k="toilets:wheelchair" v="yes"/>
  <tag k="wheelchair" v="yes"/>
 </way>
 <way id="477522107" visible="true" version="1" changeset="46446529" timestamp="2017-02-27T16:52:20Z" user="Athoss15" uid="5284554">
  <nd ref="3810589121"/>
  <nd ref="4708577501"/>
  <nd ref="4708577500"/>
  <nd ref="2083964062"/>
  <nd ref="2083964061"/>
  <nd ref="2016573358"/>
  <nd ref="4397208048"/>
  <nd ref="268751712"/>
  <nd ref="4397208058"/>
  <nd ref="4397208056"/>
  <nd ref="268751709"/>
  <nd ref="3810589121"/>
  <tag k="landuse" v="grass"/>
 </way>
 <way id="477522108" visible="true" version="1" changeset="46446529" timestamp="2017-02-27T16:52:20Z" user="Athoss15" uid="5284554">
  <nd ref="4708577504"/>
  <nd ref="4708577502"/>
  <tag k="highway" v="footway"/>
 </way>
 <way id="477522109" visible="true" version="2" changeset="49416317" timestamp="2017-06-10T09:34:00Z" user="kla25" uid="1092768">
  <nd ref="3820916226"/>
  <nd ref="4708577504"/>
  <tag k="highway" v="footway"/>
 </way>
 <way id="524756991" visible="true" version="3" changeset="71944527" timestamp="2019-07-05T20:21:33Z" user="Tompika" uid="2561972">
  <nd ref="4884034024"/>
  <nd ref="5106116053"/>
  <nd ref="5106116056"/>
  <nd ref="5106116054"/>
  <nd ref="5106116057"/>
  <nd ref="5106116055"/>
  <tag k="historic" v="railway"/>
  <tag k="note" v="Járműmérnöki kar épülete mellett kiállított vasúti sín"/>
  <tag k="railway" v="rail"/>
  <tag k="railway:preserved" v="yes"/>
 </way>
 <way id="700820842" visible="true" version="1" changeset="71780209" timestamp="2019-07-01T10:58:08Z" user="Zsolt Medgyesi" uid="7530849">
  <nd ref="6578041236"/>
  <nd ref="6578041237"/>
  <nd ref="2351646280"/>
  <nd ref="4704008259"/>
  <nd ref="4397231844"/>
  <tag k="barrier" v="fence"/>
 </way>
 <way id="796498705" visible="true" version="1" changeset="84146248" timestamp="2020-04-26T15:08:32Z" user="infeeeee" uid="662512">
  <nd ref="2083964076"/>
  <nd ref="7449175808"/>
  <nd ref="7449175807"/>
  <nd ref="268752226"/>
  <nd ref="2083964074"/>
  <nd ref="2083964078"/>
  <nd ref="2083964076"/>
  <tag k="building:colour" v="olivedrab"/>
  <tag k="building:levels" v="7"/>
  <tag k="building:part" v="yes"/>
  <tag k="height" v="21"/>
  <tag k="roof:colour" v="moccasin"/>
 </way>
 <relation id="2662213" visible="true" version="11" changeset="73143598" timestamp="2019-08-08T08:52:40Z" user="vasony" uid="2982309">
  <member type="way" ref="198237177" role="outer"/>
  <member type="way" ref="198237197" role="inner"/>
  <tag k="addr:city" v="Budapest"/>
  <tag k="addr:housenumber" v="1"/>
  <tag k="addr:postcode" v="1111"/>
  <tag k="addr:street" v="Egry József utca"/>
  <tag k="alt_name" v="Tanulmányi épület"/>
  <tag k="building" v="university"/>
  <tag k="building:levels" v="12"/>
  <tag k="loc_name" v="Elektronika épület"/>
  <tag k="name" v="E épület"/>
  <tag k="name:de" v="Gebäude E"/>
  <tag k="name:en" v="Building E"/>
  <tag k="toilets:wheelchair" v="limited"/>
  <tag k="type" v="multipolygon"/>
  <tag k="wheelchair" v="yes"/>
  <tag k="wheelchair:description" v="Kerekesszékes toalett az első emeleten található a büfé mögött."/>
 </relation>
 <relation id="4627650" visible="true" version="9" changeset="85106729" timestamp="2020-05-12T21:34:47Z" user="gabro00" uid="6626963">
  <member type="way" ref="701952760" role="outer"/>
  <member type="way" ref="26246570" role="outer"/>
  <member type="way" ref="330198863" role="outer"/>
  <member type="way" ref="700820846" role="outer"/>
  <member type="way" ref="477522103" role="outer"/>
  <member type="way" ref="700820845" role="outer"/>
  <member type="way" ref="700820842" role="outer"/>
  <member type="way" ref="700820843" role="outer"/>
  <member type="way" ref="700820841" role="outer"/>
  <member type="way" ref="82478999" role="outer"/>
  <member type="way" ref="24726476" role="outer"/>
  <tag k="amenity" v="university"/>
  <tag k="fax" v="+36 1 463 1110"/>
  <tag k="name" v="Budapesti Műszaki és Gazdaságtudományi Egyetem"/>
  <tag k="name:de" v="Technische und Wirtschaftswissenschaftliche Universität Budapest"/>
  <tag k="name:en" v="Budapest University of Technology and Economics"/>
  <tag k="name:hu" v="Budapesti Műszaki és Gazdaságtudományi Egyetem"/>
  <tag k="phone" v="+36 1 463 1111"/>
  <tag k="short_name" v="BME"/>
  <tag k="type" v="multipolygon"/>
  <tag k="website" v="http://www.bme.hu"/>
  <tag k="wheelchair" v="no"/>
  <tag k="wikidata" v="Q1186843"/>
  <tag k="wikipedia" v="hu:Budapesti Műszaki és Gazdaságtudományi Egyetem"/>
 </relation>
 <relation id="4627659" visible="true" version="26" changeset="87726098" timestamp="2020-07-08T19:29:13Z" user="vasony" uid="2982309">
  <member type="way" ref="228345197" role="outer"/>
  <member type="way" ref="330198860" role="outer"/>
  <member type="way" ref="155220696" role="outer"/>
  <member type="way" ref="228380593" role="outer"/>
  <member type="way" ref="330198850" role="outer"/>
  <member type="way" ref="330198858" role="outer"/>
  <member type="way" ref="330198846" role="outer"/>
  <member type="way" ref="330198862" role="outer"/>
  <member type="way" ref="228381425" role="outer"/>
  <member type="way" ref="330198856" role="outer"/>
  <member type="way" ref="550429741" role="outer"/>
  <member type="way" ref="330198855" role="outer"/>
  <member type="way" ref="330198864" role="outer"/>
  <member type="way" ref="330198848" role="outer"/>
  <member type="way" ref="228346513" role="outer"/>
  <member type="way" ref="330198852" role="outer"/>
  <member type="way" ref="330198853" role="outer"/>
  <member type="way" ref="330198866" role="outer"/>
  <member type="way" ref="330198854" role="outer"/>
  <member type="way" ref="700820846" role="outer"/>
  <member type="way" ref="477522103" role="outer"/>
  <member type="way" ref="700820845" role="outer"/>
  <member type="way" ref="700820842" role="outer"/>
  <member type="way" ref="700820843" role="outer"/>
  <member type="way" ref="700820841" role="outer"/>
  <member type="way" ref="701952760" role="outer"/>
  <member type="way" ref="26246570" role="outer"/>
  <member type="way" ref="330198849" role="outer"/>
  <member type="way" ref="296910358" role="outer"/>
  <member type="way" ref="526214281" role="outer"/>
  <member type="way" ref="380176477" role="outer"/>
  <member type="way" ref="721614870" role="outer"/>
  <member type="way" ref="262071959" role="outer"/>
  <member type="way" ref="296910357" role="outer"/>
  <member type="way" ref="296910361" role="outer"/>
  <member type="way" ref="530858954" role="outer"/>
  <member type="way" ref="262071965" role="outer"/>
  <member type="way" ref="380176476" role="outer"/>
  <member type="way" ref="95842186" role="outer"/>
  <member type="way" ref="385715072" role="outer"/>
  <member type="way" ref="384062346" role="outer"/>
  <member type="way" ref="50676970" role="outer"/>
  <member type="way" ref="327763008" role="outer"/>
  <member type="way" ref="425221263" role="outer"/>
  <member type="way" ref="8049714" role="outer"/>
  <member type="way" ref="34572881" role="outer"/>
  <member type="way" ref="50564662" role="outer"/>
  <member type="way" ref="336011467" role="outer"/>
  <member type="way" ref="50676969" role="outer"/>
  <member type="way" ref="54830186" role="outer"/>
  <member type="way" ref="384337682" role="outer"/>
  <member type="way" ref="381128241" role="outer"/>
  <member type="way" ref="114664765" role="outer"/>
  <member type="way" ref="34572882" role="outer"/>
  <member type="way" ref="333924969" role="outer"/>
  <member type="way" ref="803598044" role="outer"/>
  <member type="way" ref="824287171" role="outer"/>
  <member type="way" ref="720970054" role="outer"/>
  <member type="way" ref="37392516" role="outer"/>
  <member type="way" ref="359415347" role="outer"/>
  <member type="way" ref="655761111" role="outer"/>
  <member type="way" ref="46907459" role="inner"/>
  <tag k="landuse" v="residential"/>
  <tag k="source" v="survey;Bing"/>
  <tag k="type" v="multipolygon"/>
 </relation>
 <relation id="11037512" visible="true" version="1" changeset="84146248" timestamp="2020-04-26T15:08:32Z" user="infeeeee" uid="662512">
  <member type="way" ref="24727017" role="outline"/>
  <member type="way" ref="475732484" role="part"/>
  <member type="way" ref="198237193" role="part"/>
  <member type="way" ref="475732485" role="part"/>
  <tag k="type" v="building"/>
 </relation>
 <relation id="11037513" visible="true" version="1" changeset="84146248" timestamp="2020-04-26T15:08:32Z" user="infeeeee" uid="662512">
  <member type="way" ref="796498705" role="part"/>
  <member type="way" ref="476450390" role="outline"/>
  <member type="way" ref="24727086" role="part"/>
  <member type="way" ref="198237191" role="part"/>
  <member type="way" ref="442030429" role="part"/>
  <tag k="type" v="building"/>
 </relation>
</osm>
